Imágenes/Circuito3/Imagen4.csv

Record Length,2000,Points,-14.1440006E-3,-25.00000037E-3,,Record Length,2000,Points,-14.1440006E-3,-25.00000037E-3,
Sample Interval,31.99999992E-6,s,-14.1120004E-3,0.0,,Sample Interval,31.99999992E-6,s,-14.1120004E-3,-25.00000037E-3,
Trigger Point,442.000019782,Samples,-14.0800010E-3,25.00000037E-3,,Trigger Point,442.000019782,Samples,-14.0800010E-3,-25.00000037E-3,
,,,-14.0480008E-3,25.00000037E-3,,,,,-14.0480008E-3,0.0,
,,,-14.0160006E-3,100.0000015E-3,,,,,-14.0160006E-3,0.0,
,,,-13.9840003E-3,50.00000075E-3,,,,,-13.9840003E-3,0.0,
Source,CH1,,-13.9520010E-3,25.00000037E-3,,Source,CH2,,-13.9520010E-3,-25.00000037E-3,
Vertical Units,V,,-13.9200008E-3,50.00000075E-3,,Vertical Units,V,,-13.9200008E-3,0.0,
Vertical Scale,625.000009313E-3,,-13.8880005E-3,25.00000037E-3,,Vertical Scale,625.000009313E-3,,-13.8880005E-3,0.0,
Vertical Offset,0,,-13.8560003E-3,0.0,,Vertical Offset,0,,-13.8560003E-3,25.00000037E-3,
Horizontal Units,s,,-13.8240010E-3,0.0,,Horizontal Units,s,,-13.8240010E-3,0.0,
Horizontal Scale,6.39999998E-3,,-13.7920007E-3,0.0,,Horizontal Scale,6.39999998E-3,,-13.7920007E-3,0.0,
Pt Fmt,Y,,-13.7600005E-3,0.0,,Pt Fmt,Y,,-13.7600005E-3,0.0,
Yzero,80.000000000E-3,,-13.7280002E-3,25.00000037E-3,,Yzero,80.000000000E-3,,-13.7280002E-3,-25.00000037E-3,
,,,-13.6960009E-3,0.0,,,,,-13.6960009E-3,-25.00000037E-3,
,,,-13.6640007E-3,0.0,,,,,-13.6640007E-3,-25.00000037E-3,
Note,TBS2102 - 12:55:48 PM   10/18/2025,,-13.6320004E-3,25.00000037E-3,,Note,TBS2102 - 12:55:48 PM   10/18/2025,,-13.6320004E-3,25.00000037E-3,
,,,-13.6000002E-3,25.00000037E-3,,,,,-13.6000002E-3,25.00000037E-3,
,,,-13.5680009E-3,0.0,,,,,-13.5680009E-3,0.0,
,,,-13.5360006E-3,0.0,,,,,-13.5360006E-3,-50.00000075E-3,
,,,-13.5040004E-3,0.0,,,,,-13.5040004E-3,0.0,
,,,-13.4720001E-3,50.00000075E-3,,,,,-13.4720001E-3,-25.00000037E-3,
,,,-13.4400008E-3,25.00000037E-3,,,,,-13.4400008E-3,-25.00000037E-3,
,,,-13.4080006E-3,50.00000075E-3,,,,,-13.4080006E-3,-25.00000037E-3,
,,,-13.3760003E-3,0.0,,,,,-13.3760003E-3,0.0,
,,,-13.3440010E-3,25.00000037E-3,,,,,-13.3440010E-3,-25.00000037E-3,
,,,-13.3120008E-3,25.00000037E-3,,,,,-13.3120008E-3,-25.00000037E-3,
,,,-13.2800005E-3,25.00000037E-3,,,,,-13.2800005E-3,0.0,
,,,-13.2480003E-3,25.00000037E-3,,,,,-13.2480003E-3,0.0,
,,,-13.2160010E-3,0.0,,,,,-13.2160010E-3,-25.00000037E-3,
,,,-13.1840007E-3,25.00000037E-3,,,,,-13.1840007E-3,-25.00000037E-3,
,,,-13.1520005E-3,0.0,,,,,-13.1520005E-3,0.0,
,,,-13.1200003E-3,0.0,,,,,-13.1200003E-3,-25.00000037E-3,
,,,-13.0880009E-3,25.00000037E-3,,,,,-13.0880009E-3,0.0,
,,,-13.0560007E-3,0.0,,,,,-13.0560007E-3,-50.00000075E-3,
,,,-13.0240005E-3,25.00000037E-3,,,,,-13.0240005E-3,0.0,
,,,-12.9920002E-3,0.0,,,,,-12.9920002E-3,0.0,
,,,-12.9600009E-3,25.00000037E-3,,,,,-12.9600009E-3,0.0,
,,,-12.9280007E-3,25.00000037E-3,,,,,-12.9280007E-3,0.0,
,,,-12.8960004E-3,25.00000037E-3,,,,,-12.8960004E-3,-25.00000037E-3,
,,,-12.8640002E-3,0.0,,,,,-12.8640002E-3,25.00000037E-3,
,,,-12.8320009E-3,25.00000037E-3,,,,,-12.8320009E-3,0.0,
,,,-12.8000006E-3,0.0,,,,,-12.8000006E-3,0.0,
,,,-12.7680004E-3,0.0,,,,,-12.7680004E-3,0.0,
,,,-12.7360011E-3,25.00000037E-3,,,,,-12.7360011E-3,0.0,
,,,-12.7040008E-3,25.00000037E-3,,,,,-12.7040008E-3,0.0,
,,,-12.6720006E-3,0.0,,,,,-12.6720006E-3,25.00000037E-3,
,,,-12.6400003E-3,-25.00000037E-3,,,,,-12.6400003E-3,25.00000037E-3,
,,,-12.6080010E-3,25.00000037E-3,,,,,-12.6080010E-3,-25.00000037E-3,
,,,-12.5760008E-3,25.00000037E-3,,,,,-12.5760008E-3,0.0,
,,,-12.5440005E-3,50.00000075E-3,,,,,-12.5440005E-3,0.0,
,,,-12.5120003E-3,25.00000037E-3,,,,,-12.5120003E-3,-50.00000075E-3,
,,,-12.4800010E-3,-25.00000037E-3,,,,,-12.4800010E-3,0.0,
,,,-12.4480007E-3,25.00000037E-3,,,,,-12.4480007E-3,-25.00000037E-3,
,,,-12.4160005E-3,0.0,,,,,-12.4160005E-3,25.00000037E-3,
,,,-12.3840002E-3,25.00000037E-3,,,,,-12.3840002E-3,0.0,
,,,-12.3520009E-3,0.0,,,,,-12.3520009E-3,0.0,
,,,-12.3200007E-3,25.00000037E-3,,,,,-12.3200007E-3,-25.00000037E-3,
,,,-12.2880004E-3,0.0,,,,,-12.2880004E-3,-50.00000075E-3,
,,,-12.2560002E-3,0.0,,,,,-12.2560002E-3,-25.00000037E-3,
,,,-12.2240009E-3,25.00000037E-3,,,,,-12.2240009E-3,-25.00000037E-3,
,,,-12.1920006E-3,25.00000037E-3,,,,,-12.1920006E-3,-25.00000037E-3,
,,,-12.1600004E-3,25.00000037E-3,,,,,-12.1600004E-3,25.00000037E-3,
,,,-12.1280001E-3,0.0,,,,,-12.1280001E-3,-25.00000037E-3,
,,,-12.0960008E-3,50.00000075E-3,,,,,-12.0960008E-3,0.0,
,,,-12.0640006E-3,25.00000037E-3,,,,,-12.0640006E-3,-25.00000037E-3,
,,,-12.0320003E-3,25.00000037E-3,,,,,-12.0320003E-3,0.0,
,,,-12.0000010E-3,25.00000037E-3,,,,,-12.0000010E-3,-25.00000037E-3,
,,,-11.9680008E-3,25.00000037E-3,,,,,-11.9680008E-3,-25.00000037E-3,
,,,-11.9360005E-3,25.00000037E-3,,,,,-11.9360005E-3,-25.00000037E-3,
,,,-11.9040003E-3,50.00000075E-3,,,,,-11.9040003E-3,-50.00000075E-3,
,,,-11.8720010E-3,50.00000075E-3,,,,,-11.8720010E-3,0.0,
,,,-11.8400007E-3,0.0,,,,,-11.8400007E-3,0.0,
,,,-11.8080005E-3,50.00000075E-3,,,,,-11.8080005E-3,-50.00000075E-3,
,,,-11.7760003E-3,50.00000075E-3,,,,,-11.7760003E-3,-25.00000037E-3,
,,,-11.7440009E-3,0.0,,,,,-11.7440009E-3,-25.00000037E-3,
,,,-11.7120007E-3,25.00000037E-3,,,,,-11.7120007E-3,-25.00000037E-3,
,,,-11.6800005E-3,25.00000037E-3,,,,,-11.6800005E-3,-25.00000037E-3,
,,,-11.6480002E-3,25.00000037E-3,,,,,-11.6480002E-3,-25.00000037E-3,
,,,-11.6160009E-3,25.00000037E-3,,,,,-11.6160009E-3,-25.00000037E-3,
,,,-11.5840007E-3,0.0,,,,,-11.5840007E-3,0.0,
,,,-11.5520004E-3,25.00000037E-3,,,,,-11.5520004E-3,0.0,
,,,-11.5200002E-3,50.00000075E-3,,,,,-11.5200002E-3,0.0,
,,,-11.4880009E-3,0.0,,,,,-11.4880009E-3,-25.00000037E-3,
,,,-11.4560006E-3,0.0,,,,,-11.4560006E-3,0.0,
,,,-11.4240004E-3,50.00000075E-3,,,,,-11.4240004E-3,0.0,
,,,-11.3920011E-3,25.00000037E-3,,,,,-11.3920011E-3,-25.00000037E-3,
,,,-11.3600008E-3,0.0,,,,,-11.3600008E-3,-25.00000037E-3,
,,,-11.3280006E-3,0.0,,,,,-11.3280006E-3,0.0,
,,,-11.2960003E-3,-25.00000037E-3,,,,,-11.2960003E-3,0.0,
,,,-11.2640010E-3,25.00000037E-3,,,,,-11.2640010E-3,-25.00000037E-3,
,,,-11.2320008E-3,25.00000037E-3,,,,,-11.2320008E-3,0.0,
,,,-11.2000005E-3,25.00000037E-3,,,,,-11.2000005E-3,0.0,
,,,-11.1680003E-3,25.00000037E-3,,,,,-11.1680003E-3,-25.00000037E-3,
,,,-11.1360010E-3,0.0,,,,,-11.1360010E-3,0.0,
,,,-11.1040007E-3,25.00000037E-3,,,,,-11.1040007E-3,0.0,
,,,-11.0720005E-3,0.0,,,,,-11.0720005E-3,25.00000037E-3,
,,,-11.0400002E-3,25.00000037E-3,,,,,-11.0400002E-3,-25.00000037E-3,
,,,-11.0080009E-3,0.0,,,,,-11.0080009E-3,25.00000037E-3,
,,,-10.9760007E-3,25.00000037E-3,,,,,-10.9760007E-3,-25.00000037E-3,
,,,-10.9440004E-3,0.0,,,,,-10.9440004E-3,25.00000037E-3,
,,,-10.9120002E-3,0.0,,,,,-10.9120002E-3,0.0,
,,,-10.8800009E-3,50.00000075E-3,,,,,-10.8800009E-3,-25.00000037E-3,
,,,-10.8480006E-3,0.0,,,,,-10.8480006E-3,0.0,
,,,-10.8160004E-3,25.00000037E-3,,,,,-10.8160004E-3,0.0,
,,,-10.7840002E-3,0.0,,,,,-10.7840002E-3,-25.00000037E-3,
,,,-10.7520008E-3,100.0000015E-3,,,,,-10.7520008E-3,0.0,
,,,-10.7200006E-3,75.000002980E-3,,,,,-10.7200006E-3,0.0,
,,,-10.6880004E-3,25.00000037E-3,,,,,-10.6880004E-3,0.0,
,,,-10.6560010E-3,25.00000037E-3,,,,,-10.6560010E-3,0.0,
,,,-10.6240008E-3,0.0,,,,,-10.6240008E-3,-25.00000037E-3,
,,,-10.5920006E-3,0.0,,,,,-10.5920006E-3,-25.00000037E-3,
,,,-10.5600003E-3,75.000002980E-3,,,,,-10.5600003E-3,-25.00000037E-3,
,,,-10.5280010E-3,25.00000037E-3,,,,,-10.5280010E-3,-25.00000037E-3,
,,,-10.4960008E-3,25.00000037E-3,,,,,-10.4960008E-3,0.0,
,,,-10.4640005E-3,25.00000037E-3,,,,,-10.4640005E-3,-25.00000037E-3,
,,,-10.4320003E-3,0.0,,,,,-10.4320003E-3,0.0,
,,,-10.4000010E-3,25.00000037E-3,,,,,-10.4000010E-3,0.0,
,,,-10.3680007E-3,25.00000037E-3,,,,,-10.3680007E-3,0.0,
,,,-10.3360005E-3,0.0,,,,,-10.3360005E-3,0.0,
,,,-10.3040002E-3,0.0,,,,,-10.3040002E-3,0.0,
,,,-10.2720009E-3,25.00000037E-3,,,,,-10.2720009E-3,-25.00000037E-3,
,,,-10.2400007E-3,25.00000037E-3,,,,,-10.2400007E-3,0.0,
,,,-10.2080004E-3,0.0,,,,,-10.2080004E-3,-25.00000037E-3,
,,,-10.1760002E-3,0.0,,,,,-10.1760002E-3,-25.00000037E-3,
,,,-10.1440009E-3,0.0,,,,,-10.1440009E-3,-25.00000037E-3,
,,,-10.1120006E-3,25.00000037E-3,,,,,-10.1120006E-3,-25.00000037E-3,
,,,-10.0800004E-3,25.00000037E-3,,,,,-10.0800004E-3,0.0,
,,,-10.0480001E-3,50.00000075E-3,,,,,-10.0480001E-3,-50.00000075E-3,
,,,-10.0160008E-3,50.00000075E-3,,,,,-10.0160008E-3,25.00000037E-3,
,,,-9.984000586E-3,25.00000037E-3,,,,,-9.984000586E-3,-25.00000037E-3,
,,,-9.952000342E-3,0.0,,,,,-9.952000342E-3,-25.00000037E-3,
,,,-9.920001030E-3,25.00000037E-3,,,,,-9.920001030E-3,-25.00000037E-3,
,,,-9.888000786E-3,25.00000037E-3,,,,,-9.888000786E-3,0.0,
,,,-9.856000543E-3,0.0,,,,,-9.856000543E-3,0.0,
,,,-9.824000299E-3,25.00000037E-3,,,,,-9.824000299E-3,0.0,
,,,-9.792000987E-3,-25.00000037E-3,,,,,-9.792000987E-3,25.00000037E-3,
,,,-9.760000743E-3,0.0,,,,,-9.760000743E-3,0.0,
,,,-9.728000499E-3,25.00000037E-3,,,,,-9.728000499E-3,0.0,
,,,-9.696000256E-3,25.00000037E-3,,,,,-9.696000256E-3,0.0,
,,,-9.664000943E-3,0.0,,,,,-9.664000943E-3,0.0,
,,,-9.632000700E-3,25.00000037E-3,,,,,-9.632000700E-3,-25.00000037E-3,
,,,-9.600000456E-3,25.00000037E-3,,,,,-9.600000456E-3,25.00000037E-3,
,,,-9.568000212E-3,0.0,,,,,-9.568000212E-3,0.0,
,,,-9.536000900E-3,25.00000037E-3,,,,,-9.536000900E-3,0.0,
,,,-9.504000656E-3,50.00000075E-3,,,,,-9.504000656E-3,0.0,
,,,-9.472000413E-3,25.00000037E-3,,,,,-9.472000413E-3,0.0,
,,,-9.440000169E-3,0.0,,,,,-9.440000169E-3,0.0,
,,,-9.408000857E-3,25.00000037E-3,,,,,-9.408000857E-3,-25.00000037E-3,
,,,-9.376000613E-3,50.00000075E-3,,,,,-9.376000613E-3,-25.00000037E-3,
,,,-9.344000369E-3,0.0,,,,,-9.344000369E-3,0.0,
,,,-9.312001057E-3,25.00000037E-3,,,,,-9.312001057E-3,0.0,
,,,-9.280000813E-3,25.00000037E-3,,,,,-9.280000813E-3,0.0,
,,,-9.248000570E-3,25.00000037E-3,,,,,-9.248000570E-3,0.0,
,,,-9.216000326E-3,25.00000037E-3,,,,,-9.216000326E-3,0.0,
,,,-9.184001014E-3,25.00000037E-3,,,,,-9.184001014E-3,-25.00000037E-3,
,,,-9.152000770E-3,25.00000037E-3,,,,,-9.152000770E-3,-25.00000037E-3,
,,,-9.120000526E-3,0.0,,,,,-9.120000526E-3,0.0,
,,,-9.088000283E-3,0.0,,,,,-9.088000283E-3,0.0,
,,,-9.056000970E-3,25.00000037E-3,,,,,-9.056000970E-3,0.0,
,,,-9.024000727E-3,25.00000037E-3,,,,,-9.024000727E-3,0.0,
,,,-8.992000483E-3,25.00000037E-3,,,,,-8.992000483E-3,0.0,
,,,-8.960000239E-3,25.00000037E-3,,,,,-8.960000239E-3,0.0,
,,,-8.928000927E-3,-50.00000075E-3,,,,,-8.928000927E-3,-25.00000037E-3,
,,,-8.896000683E-3,25.00000037E-3,,,,,-8.896000683E-3,-25.00000037E-3,
,,,-8.864000440E-3,25.00000037E-3,,,,,-8.864000440E-3,-25.00000037E-3,
,,,-8.832000196E-3,25.00000037E-3,,,,,-8.832000196E-3,0.0,
,,,-8.800000884E-3,50.00000075E-3,,,,,-8.800000884E-3,0.0,
,,,-8.768000640E-3,25.00000037E-3,,,,,-8.768000640E-3,0.0,
,,,-8.736000396E-3,25.00000037E-3,,,,,-8.736000396E-3,0.0,
,,,-8.704000153E-3,25.00000037E-3,,,,,-8.704000153E-3,0.0,
,,,-8.672000840E-3,25.00000037E-3,,,,,-8.672000840E-3,-25.00000037E-3,
,,,-8.640000597E-3,25.00000037E-3,,,,,-8.640000597E-3,0.0,
,,,-8.608000353E-3,25.00000037E-3,,,,,-8.608000353E-3,-25.00000037E-3,
,,,-8.576001041E-3,50.00000075E-3,,,,,-8.576001041E-3,0.0,
,,,-8.544000797E-3,25.00000037E-3,,,,,-8.544000797E-3,0.0,
,,,-8.512000553E-3,0.0,,,,,-8.512000553E-3,-50.00000075E-3,
,,,-8.480000310E-3,50.00000075E-3,,,,,-8.480000310E-3,0.0,
,,,-8.448000997E-3,0.0,,,,,-8.448000997E-3,0.0,
,,,-8.416000754E-3,25.00000037E-3,,,,,-8.416000754E-3,-25.00000037E-3,
,,,-8.384000510E-3,0.0,,,,,-8.384000510E-3,0.0,
,,,-8.352000266E-3,0.0,,,,,-8.352000266E-3,-25.00000037E-3,
,,,-8.320000954E-3,0.0,,,,,-8.320000954E-3,0.0,
,,,-8.288000710E-3,0.0,,,,,-8.288000710E-3,0.0,
,,,-8.256000467E-3,-25.00000037E-3,,,,,-8.256000467E-3,25.00000037E-3,
,,,-8.224000223E-3,25.00000037E-3,,,,,-8.224000223E-3,-25.00000037E-3,
,,,-8.192000911E-3,25.00000037E-3,,,,,-8.192000911E-3,0.0,
,,,-8.160000667E-3,25.00000037E-3,,,,,-8.160000667E-3,0.0,
,,,-8.128000423E-3,25.00000037E-3,,,,,-8.128000423E-3,0.0,
,,,-8.096000180E-3,0.0,,,,,-8.096000180E-3,0.0,
,,,-8.064000867E-3,25.00000037E-3,,,,,-8.064000867E-3,0.0,
,,,-8.032000624E-3,25.00000037E-3,,,,,-8.032000624E-3,-25.00000037E-3,
,,,-8.000000380E-3,25.00000037E-3,,,,,-8.000000380E-3,0.0,
,,,-7.968001068E-3,-25.00000037E-3,,,,,-7.968001068E-3,0.0,
,,,-7.936000824E-3,0.0,,,,,-7.936000824E-3,0.0,
,,,-7.904000580E-3,50.00000075E-3,,,,,-7.904000580E-3,-25.00000037E-3,
,,,-7.872000337E-3,25.00000037E-3,,,,,-7.872000337E-3,-25.00000037E-3,
,,,-7.840001024E-3,50.00000075E-3,,,,,-7.840001024E-3,0.0,
,,,-7.808000781E-3,0.0,,,,,-7.808000781E-3,0.0,
,,,-7.776000537E-3,0.0,,,,,-7.776000537E-3,-25.00000037E-3,
,,,-7.744000759E-3,25.00000037E-3,,,,,-7.744000759E-3,0.0,
,,,-7.712000515E-3,0.0,,,,,-7.712000515E-3,25.00000037E-3,
,,,-7.680000737E-3,25.00000037E-3,,,,,-7.680000737E-3,0.0,
,,,-7.648000494E-3,-25.00000037E-3,,,,,-7.648000494E-3,25.00000037E-3,
,,,-7.616000716E-3,0.0,,,,,-7.616000716E-3,-25.00000037E-3,
,,,-7.584000472E-3,0.0,,,,,-7.584000472E-3,-25.00000037E-3,
,,,-7.552000694E-3,50.00000075E-3,,,,,-7.552000694E-3,-25.00000037E-3,
,,,-7.520000450E-3,0.0,,,,,-7.520000450E-3,0.0,
,,,-7.488000672E-3,25.00000037E-3,,,,,-7.488000672E-3,0.0,
,,,-7.456000429E-3,-25.00000037E-3,,,,,-7.456000429E-3,25.00000037E-3,
,,,-7.424000651E-3,25.00000037E-3,,,,,-7.424000651E-3,-25.00000037E-3,
,,,-7.392000407E-3,25.00000037E-3,,,,,-7.392000407E-3,25.00000037E-3,
,,,-7.36000063E-3,0.0,,,,,-7.36000063E-3,0.0,
,,,-7.32800039E-3,50.00000075E-3,,,,,-7.32800039E-3,0.0,
,,,-7.29600061E-3,0.0,,,,,-7.29600061E-3,0.0,
,,,-7.26400083E-3,25.00000037E-3,,,,,-7.26400083E-3,-25.00000037E-3,
,,,-7.23200059E-3,50.00000075E-3,,,,,-7.23200059E-3,-25.00000037E-3,
,,,-7.20000081E-3,0.0,,,,,-7.20000081E-3,0.0,
,,,-7.16800056E-3,50.00000075E-3,,,,,-7.16800056E-3,0.0,
,,,-7.13600079E-3,25.00000037E-3,,,,,-7.13600079E-3,0.0,
,,,-7.10400054E-3,25.00000037E-3,,,,,-7.10400054E-3,-25.00000037E-3,
,,,-7.07200076E-3,50.00000075E-3,,,,,-7.07200076E-3,-25.00000037E-3,
,,,-7.04000052E-3,25.00000037E-3,,,,,-7.04000052E-3,0.0,
,,,-7.00800074E-3,0.0,,,,,-7.00800074E-3,-25.00000037E-3,
,,,-6.97600050E-3,25.00000037E-3,,,,,-6.97600050E-3,0.0,
,,,-6.94400072E-3,0.0,,,,,-6.94400072E-3,0.0,
,,,-6.91200048E-3,0.0,,,,,-6.91200048E-3,25.00000037E-3,
,,,-6.88000070E-3,25.00000037E-3,,,,,-6.88000070E-3,25.00000037E-3,
,,,-6.84800046E-3,0.0,,,,,-6.84800046E-3,0.0,
,,,-6.81600068E-3,25.00000037E-3,,,,,-6.81600068E-3,0.0,
,,,-6.78400043E-3,-25.00000037E-3,,,,,-6.78400043E-3,-25.00000037E-3,
,,,-6.75200066E-3,0.0,,,,,-6.75200066E-3,0.0,
,,,-6.72000041E-3,25.00000037E-3,,,,,-6.72000041E-3,0.0,
,,,-6.68800063E-3,25.00000037E-3,,,,,-6.68800063E-3,-25.00000037E-3,
,,,-6.65600039E-3,25.00000037E-3,,,,,-6.65600039E-3,0.0,
,,,-6.62400061E-3,25.00000037E-3,,,,,-6.62400061E-3,0.0,
,,,-6.59200083E-3,0.0,,,,,-6.59200083E-3,25.00000037E-3,
,,,-6.56000059E-3,50.00000075E-3,,,,,-6.56000059E-3,0.0,
,,,-6.52800081E-3,0.0,,,,,-6.52800081E-3,0.0,
,,,-6.49600057E-3,25.00000037E-3,,,,,-6.49600057E-3,0.0,
,,,-6.46400079E-3,0.0,,,,,-6.46400079E-3,-25.00000037E-3,
,,,-6.43200055E-3,0.0,,,,,-6.43200055E-3,0.0,
,,,-6.40000077E-3,25.00000037E-3,,,,,-6.40000077E-3,0.0,
,,,-6.36800053E-3,0.0,,,,,-6.36800053E-3,0.0,
,,,-6.33600075E-3,25.00000037E-3,,,,,-6.33600075E-3,-25.00000037E-3,
,,,-6.30400050E-3,25.00000037E-3,,,,,-6.30400050E-3,0.0,
,,,-6.27200073E-3,25.00000037E-3,,,,,-6.27200073E-3,-25.00000037E-3,
,,,-6.24000048E-3,25.00000037E-3,,,,,-6.24000048E-3,0.0,
,,,-6.20800070E-3,25.00000037E-3,,,,,-6.20800070E-3,0.0,
,,,-6.17600046E-3,50.00000075E-3,,,,,-6.17600046E-3,-25.00000037E-3,
,,,-6.14400068E-3,75.000002980E-3,,,,,-6.14400068E-3,0.0,
,,,-6.11200044E-3,25.00000037E-3,,,,,-6.11200044E-3,-25.00000037E-3,
,,,-6.08000066E-3,0.0,,,,,-6.08000066E-3,0.0,
,,,-6.04800042E-3,25.00000037E-3,,,,,-6.04800042E-3,-25.00000037E-3,
,,,-6.01600064E-3,25.00000037E-3,,,,,-6.01600064E-3,0.0,
,,,-5.98400040E-3,50.00000075E-3,,,,,-5.98400040E-3,0.0,
,,,-5.95200062E-3,0.0,,,,,-5.95200062E-3,-25.00000037E-3,
,,,-5.92000084E-3,25.00000037E-3,,,,,-5.92000084E-3,-25.00000037E-3,
,,,-5.88800060E-3,0.0,,,,,-5.88800060E-3,25.00000037E-3,
,,,-5.85600082E-3,0.0,,,,,-5.85600082E-3,0.0,
,,,-5.82400057E-3,25.00000037E-3,,,,,-5.82400057E-3,25.00000037E-3,
,,,-5.79200080E-3,25.00000037E-3,,,,,-5.79200080E-3,0.0,
,,,-5.76000055E-3,0.0,,,,,-5.76000055E-3,0.0,
,,,-5.72800077E-3,25.00000037E-3,,,,,-5.72800077E-3,-25.00000037E-3,
,,,-5.69600053E-3,0.0,,,,,-5.69600053E-3,0.0,
,,,-5.66400075E-3,25.00000037E-3,,,,,-5.66400075E-3,0.0,
,,,-5.63200051E-3,25.00000037E-3,,,,,-5.63200051E-3,-25.00000037E-3,
,,,-5.60000073E-3,25.00000037E-3,,,,,-5.60000073E-3,0.0,
,,,-5.56800049E-3,-25.00000037E-3,,,,,-5.56800049E-3,0.0,
,,,-5.53600071E-3,0.0,,,,,-5.53600071E-3,25.00000037E-3,
,,,-5.50400047E-3,25.00000037E-3,,,,,-5.50400047E-3,0.0,
,,,-5.47200069E-3,25.00000037E-3,,,,,-5.47200069E-3,0.0,
,,,-5.44000044E-3,0.0,,,,,-5.44000044E-3,-25.00000037E-3,
,,,-5.40800067E-3,-25.00000037E-3,,,,,-5.40800067E-3,0.0,
,,,-5.37600042E-3,50.00000075E-3,,,,,-5.37600042E-3,0.0,
,,,-5.34400064E-3,25.00000037E-3,,,,,-5.34400064E-3,25.00000037E-3,
,,,-5.31200040E-3,25.00000037E-3,,,,,-5.31200040E-3,0.0,
,,,-5.28000062E-3,25.00000037E-3,,,,,-5.28000062E-3,0.0,
,,,-5.24800085E-3,25.00000037E-3,,,,,-5.24800085E-3,-25.00000037E-3,
,,,-5.21600060E-3,0.0,,,,,-5.21600060E-3,25.00000037E-3,
,,,-5.18400082E-3,25.00000037E-3,,,,,-5.18400082E-3,0.0,
,,,-5.15200058E-3,25.00000037E-3,,,,,-5.15200058E-3,0.0,
,,,-5.12000080E-3,25.00000037E-3,,,,,-5.12000080E-3,-25.00000037E-3,
,,,-5.08800056E-3,0.0,,,,,-5.08800056E-3,0.0,
,,,-5.05600078E-3,0.0,,,,,-5.05600078E-3,0.0,
,,,-5.02400054E-3,25.00000037E-3,,,,,-5.02400054E-3,0.0,
,,,-4.99200076E-3,0.0,,,,,-4.99200076E-3,0.0,
,,,-4.96000051E-3,25.00000037E-3,,,,,-4.96000051E-3,-25.00000037E-3,
,,,-4.92800074E-3,-25.00000037E-3,,,,,-4.92800074E-3,25.00000037E-3,
,,,-4.89600049E-3,0.0,,,,,-4.89600049E-3,0.0,
,,,-4.86400072E-3,0.0,,,,,-4.86400072E-3,0.0,
,,,-4.83200047E-3,50.00000075E-3,,,,,-4.83200047E-3,-25.00000037E-3,
,,,-4.80000069E-3,0.0,,,,,-4.80000069E-3,0.0,
,,,-4.76800045E-3,50.00000075E-3,,,,,-4.76800045E-3,0.0,
,,,-4.73600067E-3,25.00000037E-3,,,,,-4.73600067E-3,0.0,
,,,-4.70400043E-3,0.0,,,,,-4.70400043E-3,0.0,
,,,-4.67200065E-3,0.0,,,,,-4.67200065E-3,25.00000037E-3,
,,,-4.64000041E-3,25.00000037E-3,,,,,-4.64000041E-3,0.0,
,,,-4.60800063E-3,25.00000037E-3,,,,,-4.60800063E-3,0.0,
,,,-4.57600085E-3,0.0,,,,,-4.57600085E-3,0.0,
,,,-4.54400061E-3,25.00000037E-3,,,,,-4.54400061E-3,0.0,
,,,-4.51200083E-3,25.00000037E-3,,,,,-4.51200083E-3,0.0,
,,,-4.48000059E-3,-25.00000037E-3,,,,,-4.48000059E-3,-25.00000037E-3,
,,,-4.44800081E-3,0.0,,,,,-4.44800081E-3,25.00000037E-3,
,,,-4.41600056E-3,25.00000037E-3,,,,,-4.41600056E-3,0.0,
,,,-4.38400079E-3,50.00000075E-3,,,,,-4.38400079E-3,-50.00000075E-3,
,,,-4.35200054E-3,25.00000037E-3,,,,,-4.35200054E-3,0.0,
,,,-4.32000076E-3,25.00000037E-3,,,,,-4.32000076E-3,-25.00000037E-3,
,,,-4.28800052E-3,0.0,,,,,-4.28800052E-3,-25.00000037E-3,
,,,-4.25600074E-3,0.0,,,,,-4.25600074E-3,-50.00000075E-3,
,,,-4.22400050E-3,0.0,,,,,-4.22400050E-3,-25.00000037E-3,
,,,-4.19200072E-3,-125.0000000E-3,,,,,-4.19200072E-3,-25.00000037E-3,
,,,-4.16000048E-3,25.00000037E-3,,,,,-4.16000048E-3,0.0,
,,,-4.12800070E-3,-25.00000037E-3,,,,,-4.12800070E-3,0.0,
,,,-4.09600046E-3,25.00000037E-3,,,,,-4.09600046E-3,0.0,
,,,-4.06400068E-3,25.00000037E-3,,,,,-4.06400068E-3,0.0,
,,,-4.03200043E-3,50.00000075E-3,,,,,-4.03200043E-3,0.0,
,,,-4.00000066E-3,0.0,,,,,-4.00000066E-3,25.00000037E-3,
,,,-3.96800041E-3,0.0,,,,,-3.96800041E-3,25.00000037E-3,
,,,-3.93600063E-3,0.0,,,,,-3.93600063E-3,0.0,
,,,-3.90400062E-3,0.0,,,,,-3.90400062E-3,0.0,
,,,-3.87200061E-3,25.00000037E-3,,,,,-3.87200061E-3,-25.00000037E-3,
,,,-3.84000060E-3,-25.00000037E-3,,,,,-3.84000060E-3,0.0,
,,,-3.80800059E-3,25.00000037E-3,,,,,-3.80800059E-3,0.0,
,,,-3.77600058E-3,0.0,,,,,-3.77600058E-3,0.0,
,,,-3.74400057E-3,25.00000037E-3,,,,,-3.74400057E-3,0.0,
,,,-3.71200056E-3,50.00000075E-3,,,,,-3.71200056E-3,-25.00000037E-3,
,,,-3.68000055E-3,25.00000037E-3,,,,,-3.68000055E-3,25.00000037E-3,
