Imágenes/Circuito6/Mediciones nodo resistencia capacitor/Imagen2.csv

Record Length,2000,Points,478.400021791E-3,100.0000089E-3,,Record Length,2000,Points,478.400021791E-3,20.0000014E-3,
Sample Interval,79.999997979E-6,s,478.480011225E-3,60.000002384E-3,,Sample Interval,79.999997979E-6,s,478.480011225E-3,60.000002384E-3,
Trigger Point,-5.98000071E3,Samples,478.560030460E-3,60.000002384E-3,,Trigger Point,-5.98000071E3,Samples,478.560030460E-3,20.0000014E-3,
,,,478.640019894E-3,100.0000089E-3,,,,,478.640019894E-3,20.0000014E-3,
,,,478.720009327E-3,60.000002384E-3,,,,,478.720009327E-3,60.000002384E-3,
,,,478.800028563E-3,60.000002384E-3,,,,,478.800028563E-3,60.000002384E-3,
Source,CH1,,478.880017996E-3,100.0000089E-3,,Source,CH2,,478.880017996E-3,60.000002384E-3,
Vertical Units,V,,478.960007429E-3,100.0000089E-3,,Vertical Units,V,,478.960007429E-3,20.0000014E-3,
Vertical Scale,1.0000001,,479.040026665E-3,60.000002384E-3,,Vertical Scale,1.0000001,,479.040026665E-3,20.0000014E-3,
Vertical Offset,0,,479.120016098E-3,100.0000089E-3,,Vertical Offset,0,,479.120016098E-3,60.000002384E-3,
Horizontal Units,s,,479.200035334E-3,100.0000089E-3,,Horizontal Units,s,,479.200035334E-3,60.000002384E-3,
Horizontal Scale,15.9999996E-3,,479.280024767E-3,60.000002384E-3,,Horizontal Scale,15.9999996E-3,,479.280024767E-3,20.0000014E-3,
Pt Fmt,Y,,479.360014200E-3,100.0000089E-3,,Pt Fmt,Y,,479.360014200E-3,60.000002384E-3,
Yzero,-2.1000000,,479.440033436E-3,100.0000089E-3,,Yzero,-2.1000000,,479.440033436E-3,60.000002384E-3,
,,,479.520022869E-3,100.0000089E-3,,,,,479.520022869E-3,60.000002384E-3,
,,,479.600012302E-3,100.0000089E-3,,,,,479.600012302E-3,60.000002384E-3,
Note,TBS2102B - 8:58:14 PM   10/23/2025,,479.680031538E-3,60.000002384E-3,,Note,TBS2102B - 8:58:14 PM   10/23/2025,,479.680031538E-3,60.000002384E-3,
,,,479.760020971E-3,100.0000089E-3,,,,,479.760020971E-3,60.000002384E-3,
,,,479.840010405E-3,100.0000089E-3,,,,,479.840010405E-3,60.000002384E-3,
,,,479.920029640E-3,100.0000089E-3,,,,,479.920029640E-3,20.0000014E-3,
,,,480.000019073E-3,100.0000089E-3,,,,,480.000019073E-3,60.000002384E-3,
,,,480.080008507E-3,100.0000089E-3,,,,,480.080008507E-3,60.000002384E-3,
,,,480.160027742E-3,100.0000089E-3,,,,,480.160027742E-3,100.0000089E-3,
,,,480.240017176E-3,100.0000089E-3,,,,,480.240017176E-3,100.0000089E-3,
,,,480.320036411E-3,100.0000089E-3,,,,,480.320036411E-3,100.0000089E-3,
,,,480.400025845E-3,60.000002384E-3,,,,,480.400025845E-3,100.0000089E-3,
,,,480.480015278E-3,100.0000089E-3,,,,,480.480015278E-3,100.0000089E-3,
,,,480.560034513E-3,100.0000089E-3,,,,,480.560034513E-3,140.0000155E-3,
,,,480.640023947E-3,100.0000089E-3,,,,,480.640023947E-3,140.0000155E-3,
,,,480.720013380E-3,100.0000089E-3,,,,,480.720013380E-3,100.0000089E-3,
,,,480.800032616E-3,100.0000089E-3,,,,,480.800032616E-3,100.0000089E-3,
,,,480.880022049E-3,100.0000089E-3,,,,,480.880022049E-3,140.0000155E-3,
,,,480.960011482E-3,100.0000089E-3,,,,,480.960011482E-3,140.0000155E-3,
,,,481.040030718E-3,100.0000089E-3,,,,,481.040030718E-3,100.0000089E-3,
,,,481.120020151E-3,100.0000089E-3,,,,,481.120020151E-3,100.0000089E-3,
,,,481.200009584E-3,100.0000089E-3,,,,,481.200009584E-3,140.0000155E-3,
,,,481.280028820E-3,100.0000089E-3,,,,,481.280028820E-3,100.0000089E-3,
,,,481.360018253E-3,100.0000089E-3,,,,,481.360018253E-3,140.0000155E-3,
,,,481.440007687E-3,100.0000089E-3,,,,,481.440007687E-3,100.0000089E-3,
,,,481.520026922E-3,100.0000089E-3,,,,,481.520026922E-3,140.0000155E-3,
,,,481.600016356E-3,100.0000089E-3,,,,,481.600016356E-3,100.0000089E-3,
,,,481.680035591E-3,100.0000089E-3,,,,,481.680035591E-3,100.0000089E-3,
,,,481.760025024E-3,100.0000089E-3,,,,,481.760025024E-3,100.0000089E-3,
,,,481.840014458E-3,100.0000089E-3,,,,,481.840014458E-3,100.0000089E-3,
,,,481.920033693E-3,100.0000089E-3,,,,,481.920033693E-3,140.0000155E-3,
,,,482.000023127E-3,100.0000089E-3,,,,,482.000023127E-3,100.0000089E-3,
,,,482.080012560E-3,100.0000089E-3,,,,,482.080012560E-3,100.0000089E-3,
,,,482.160031796E-3,100.0000089E-3,,,,,482.160031796E-3,100.0000089E-3,
,,,482.240021229E-3,100.0000089E-3,,,,,482.240021229E-3,100.0000089E-3,
,,,482.320010662E-3,100.0000089E-3,,,,,482.320010662E-3,100.0000089E-3,
,,,482.400029898E-3,100.0000089E-3,,,,,482.400029898E-3,60.000002384E-3,
,,,482.480019331E-3,100.0000089E-3,,,,,482.480019331E-3,100.0000089E-3,
,,,482.560008764E-3,100.0000089E-3,,,,,482.560008764E-3,100.0000089E-3,
,,,482.640028000E-3,100.0000089E-3,,,,,482.640028000E-3,100.0000089E-3,
,,,482.720017433E-3,100.0000089E-3,,,,,482.720017433E-3,100.0000089E-3,
,,,482.800006866E-3,100.0000089E-3,,,,,482.800006866E-3,100.0000089E-3,
,,,482.880026102E-3,100.0000089E-3,,,,,482.880026102E-3,60.000002384E-3,
,,,482.960015535E-3,100.0000089E-3,,,,,482.960015535E-3,100.0000089E-3,
,,,483.040034771E-3,100.0000089E-3,,,,,483.040034771E-3,60.000002384E-3,
,,,483.120024204E-3,100.0000089E-3,,,,,483.120024204E-3,20.0000014E-3,
,,,483.200013638E-3,60.000002384E-3,,,,,483.200013638E-3,60.000002384E-3,
,,,483.280032873E-3,60.000002384E-3,,,,,483.280032873E-3,60.000002384E-3,
,,,483.360022306E-3,60.000002384E-3,,,,,483.360022306E-3,60.000002384E-3,
,,,483.440011740E-3,60.000002384E-3,,,,,483.440011740E-3,20.0000014E-3,
,,,483.520030975E-3,100.0000089E-3,,,,,483.520030975E-3,20.0000014E-3,
,,,483.600020409E-3,60.000002384E-3,,,,,483.600020409E-3,20.0000014E-3,
,,,483.680009842E-3,60.000002384E-3,,,,,483.680009842E-3,20.0000014E-3,
,,,483.760029078E-3,60.000002384E-3,,,,,483.760029078E-3,20.0000014E-3,
,,,483.840018511E-3,60.000002384E-3,,,,,483.840018511E-3,-20.0000014E-3,
,,,483.920007944E-3,60.000002384E-3,,,,,483.920007944E-3,-20.0000014E-3,
,,,484.000027180E-3,60.000002384E-3,,,,,484.000027180E-3,-20.0000014E-3,
,,,484.080016613E-3,60.000002384E-3,,,,,484.080016613E-3,-20.0000014E-3,
,,,484.160035849E-3,60.000002384E-3,,,,,484.160035849E-3,-20.0000014E-3,
,,,484.240025282E-3,60.000002384E-3,,,,,484.240025282E-3,-60.000002384E-3,
,,,484.320014715E-3,20.0000014E-3,,,,,484.320014715E-3,-20.0000014E-3,
,,,484.400033951E-3,60.000002384E-3,,,,,484.400033951E-3,-60.000002384E-3,
,,,484.480023384E-3,60.000002384E-3,,,,,484.480023384E-3,-20.0000014E-3,
,,,484.560012817E-3,60.000002384E-3,,,,,484.560012817E-3,-20.0000014E-3,
,,,484.640032053E-3,20.0000014E-3,,,,,484.640032053E-3,-20.0000014E-3,
,,,484.720021486E-3,60.000002384E-3,,,,,484.720021486E-3,-20.0000014E-3,
,,,484.800010920E-3,20.0000014E-3,,,,,484.800010920E-3,-20.0000014E-3,
,,,484.880030155E-3,60.000002384E-3,,,,,484.880030155E-3,-20.0000014E-3,
,,,484.960019588E-3,60.000002384E-3,,,,,484.960019588E-3,-20.0000014E-3,
,,,485.040009022E-3,60.000002384E-3,,,,,485.040009022E-3,-20.0000014E-3,
,,,485.120028257E-3,60.000002384E-3,,,,,485.120028257E-3,-20.0000014E-3,
,,,485.200017691E-3,20.0000014E-3,,,,,485.200017691E-3,-20.0000014E-3,
,,,485.280007124E-3,60.000002384E-3,,,,,485.280007124E-3,-20.0000014E-3,
,,,485.360026360E-3,60.000002384E-3,,,,,485.360026360E-3,-20.0000014E-3,
,,,485.440015793E-3,60.000002384E-3,,,,,485.440015793E-3,-20.0000014E-3,
,,,485.520035028E-3,60.000002384E-3,,,,,485.520035028E-3,-20.0000014E-3,
,,,485.600024462E-3,20.0000014E-3,,,,,485.600024462E-3,-20.0000014E-3,
,,,485.680013895E-3,60.000002384E-3,,,,,485.680013895E-3,-60.000002384E-3,
,,,485.760033131E-3,60.000002384E-3,,,,,485.760033131E-3,-60.000002384E-3,
,,,485.840022564E-3,20.0000014E-3,,,,,485.840022564E-3,-60.000002384E-3,
,,,485.920011997E-3,60.000002384E-3,,,,,485.920011997E-3,-20.0000014E-3,
,,,486.000031233E-3,60.000002384E-3,,,,,486.000031233E-3,-20.0000014E-3,
,,,486.080020666E-3,60.000002384E-3,,,,,486.080020666E-3,-20.0000014E-3,
,,,486.160010099E-3,60.000002384E-3,,,,,486.160010099E-3,-20.0000014E-3,
,,,486.240029335E-3,60.000002384E-3,,,,,486.240029335E-3,-20.0000014E-3,
,,,486.320018768E-3,60.000002384E-3,,,,,486.320018768E-3,-20.0000014E-3,
,,,486.400008202E-3,60.000002384E-3,,,,,486.400008202E-3,-20.0000014E-3,
,,,486.480027437E-3,60.000002384E-3,,,,,486.480027437E-3,-20.0000014E-3,
,,,486.560016870E-3,20.0000014E-3,,,,,486.560016870E-3,-20.0000014E-3,
,,,486.640036106E-3,60.000002384E-3,,,,,486.640036106E-3,-60.000002384E-3,
,,,486.720025539E-3,60.000002384E-3,,,,,486.720025539E-3,-60.000002384E-3,
,,,486.800014973E-3,60.000002384E-3,,,,,486.800014973E-3,-60.000002384E-3,
,,,486.880034208E-3,60.000002384E-3,,,,,486.880034208E-3,-20.0000014E-3,
,,,486.960023642E-3,60.000002384E-3,,,,,486.960023642E-3,-60.000002384E-3,
,,,487.040013075E-3,60.000002384E-3,,,,,487.040013075E-3,-20.0000014E-3,
,,,487.120032310E-3,20.0000014E-3,,,,,487.120032310E-3,-60.000002384E-3,
,,,487.200021744E-3,60.000002384E-3,,,,,487.200021744E-3,-20.0000014E-3,
,,,487.280011177E-3,60.000002384E-3,,,,,487.280011177E-3,-20.0000014E-3,
,,,487.360030413E-3,20.0000014E-3,,,,,487.360030413E-3,-20.0000014E-3,
,,,487.440019846E-3,20.0000014E-3,,,,,487.440019846E-3,-20.0000014E-3,
,,,487.520009279E-3,60.000002384E-3,,,,,487.520009279E-3,-20.0000014E-3,
,,,487.600028515E-3,20.0000014E-3,,,,,487.600028515E-3,-20.0000014E-3,
,,,487.680017948E-3,60.000002384E-3,,,,,487.680017948E-3,-20.0000014E-3,
,,,487.760007381E-3,20.0000014E-3,,,,,487.760007381E-3,-20.0000014E-3,
,,,487.840026617E-3,20.0000014E-3,,,,,487.840026617E-3,-20.0000014E-3,
,,,487.920016050E-3,20.0000014E-3,,,,,487.920016050E-3,-20.0000014E-3,
,,,488.000035286E-3,60.000002384E-3,,,,,488.000035286E-3,-20.0000014E-3,
,,,488.080024719E-3,60.000002384E-3,,,,,488.080024719E-3,-20.0000014E-3,
,,,488.160014153E-3,60.000002384E-3,,,,,488.160014153E-3,-20.0000014E-3,
,,,488.240033388E-3,60.000002384E-3,,,,,488.240033388E-3,-20.0000014E-3,
,,,488.320022821E-3,60.000002384E-3,,,,,488.320022821E-3,-20.0000014E-3,
,,,488.400012255E-3,20.0000014E-3,,,,,488.400012255E-3,-20.0000014E-3,
,,,488.480031490E-3,60.000002384E-3,,,,,488.480031490E-3,-20.0000014E-3,
,,,488.560020924E-3,60.000002384E-3,,,,,488.560020924E-3,-20.0000014E-3,
,,,488.640010357E-3,60.000002384E-3,,,,,488.640010357E-3,-60.000002384E-3,
,,,488.720029593E-3,60.000002384E-3,,,,,488.720029593E-3,-60.000002384E-3,
,,,488.800019026E-3,60.000002384E-3,,,,,488.800019026E-3,-60.000002384E-3,
,,,488.880008459E-3,60.000002384E-3,,,,,488.880008459E-3,-20.0000014E-3,
,,,488.960027695E-3,60.000002384E-3,,,,,488.960027695E-3,-60.000002384E-3,
,,,489.040017128E-3,60.000002384E-3,,,,,489.040017128E-3,-20.0000014E-3,
,,,489.120036364E-3,60.000002384E-3,,,,,489.120036364E-3,-20.0000014E-3,
,,,489.200025797E-3,60.000002384E-3,,,,,489.200025797E-3,-60.000002384E-3,
,,,489.280015230E-3,60.000002384E-3,,,,,489.280015230E-3,-60.000002384E-3,
,,,489.360034466E-3,60.000002384E-3,,,,,489.360034466E-3,-20.0000014E-3,
,,,489.440023899E-3,20.0000014E-3,,,,,489.440023899E-3,-20.0000014E-3,
,,,489.520013332E-3,60.000002384E-3,,,,,489.520013332E-3,-60.000002384E-3,
,,,489.600032568E-3,20.0000014E-3,,,,,489.600032568E-3,-20.0000014E-3,
,,,489.680022001E-3,60.000002384E-3,,,,,489.680022001E-3,-20.0000014E-3,
,,,489.760011435E-3,60.000002384E-3,,,,,489.760011435E-3,-20.0000014E-3,
,,,489.840030670E-3,60.000002384E-3,,,,,489.840030670E-3,-20.0000014E-3,
,,,489.920020103E-3,60.000002384E-3,,,,,489.920020103E-3,-20.0000014E-3,
,,,490.000009537E-3,60.000002384E-3,,,,,490.000009537E-3,-20.0000014E-3,
,,,490.080028772E-3,60.000002384E-3,,,,,490.080028772E-3,20.0000014E-3,
,,,490.160018206E-3,100.0000089E-3,,,,,490.160018206E-3,-60.000002384E-3,
,,,490.240007639E-3,100.0000089E-3,,,,,490.240007639E-3,-20.0000014E-3,
,,,490.320026875E-3,60.000002384E-3,,,,,490.320026875E-3,-20.0000014E-3,
,,,490.400016308E-3,60.000002384E-3,,,,,490.400016308E-3,-20.0000014E-3,
,,,490.480035543E-3,60.000002384E-3,,,,,490.480035543E-3,-20.0000014E-3,
,,,490.560024977E-3,60.000002384E-3,,,,,490.560024977E-3,20.0000014E-3,
,,,490.640014410E-3,60.000002384E-3,,,,,490.640014410E-3,20.0000014E-3,
,,,490.720033646E-3,60.000002384E-3,,,,,490.720033646E-3,20.0000014E-3,
,,,490.800023079E-3,60.000002384E-3,,,,,490.800023079E-3,20.0000014E-3,
,,,490.880012512E-3,60.000002384E-3,,,,,490.880012512E-3,-20.0000014E-3,
,,,490.960031748E-3,60.000002384E-3,,,,,490.960031748E-3,-20.0000014E-3,
,,,491.040021181E-3,60.000002384E-3,,,,,491.040021181E-3,20.0000014E-3,
,,,491.120010614E-3,60.000002384E-3,,,,,491.120010614E-3,-20.0000014E-3,
,,,491.200029850E-3,60.000002384E-3,,,,,491.200029850E-3,-20.0000014E-3,
,,,491.280019283E-3,60.000002384E-3,,,,,491.280019283E-3,-20.0000014E-3,
,,,491.360008717E-3,60.000002384E-3,,,,,491.360008717E-3,20.0000014E-3,
,,,491.440027952E-3,60.000002384E-3,,,,,491.440027952E-3,20.0000014E-3,
,,,491.520017385E-3,60.000002384E-3,,,,,491.520017385E-3,-20.0000014E-3,
,,,491.600006819E-3,20.0000014E-3,,,,,491.600006819E-3,20.0000014E-3,
,,,491.680026054E-3,60.000002384E-3,,,,,491.680026054E-3,20.0000014E-3,
,,,491.760015488E-3,60.000002384E-3,,,,,491.760015488E-3,20.0000014E-3,
,,,491.840034723E-3,60.000002384E-3,,,,,491.840034723E-3,-20.0000014E-3,
,,,491.920024157E-3,60.000002384E-3,,,,,491.920024157E-3,20.0000014E-3,
,,,492.000013590E-3,60.000002384E-3,,,,,492.000013590E-3,20.0000014E-3,
,,,492.080032825E-3,60.000002384E-3,,,,,492.080032825E-3,-20.0000014E-3,
,,,492.160022259E-3,60.000002384E-3,,,,,492.160022259E-3,20.0000014E-3,
,,,492.240011692E-3,60.000002384E-3,,,,,492.240011692E-3,20.0000014E-3,
,,,492.320030928E-3,20.0000014E-3,,,,,492.320030928E-3,20.0000014E-3,
,,,492.400020361E-3,60.000002384E-3,,,,,492.400020361E-3,20.0000014E-3,
,,,492.480009794E-3,60.000002384E-3,,,,,492.480009794E-3,20.0000014E-3,
,,,492.560029030E-3,60.000002384E-3,,,,,492.560029030E-3,-20.0000014E-3,
,,,492.640018463E-3,60.000002384E-3,,,,,492.640018463E-3,20.0000014E-3,
,,,492.720007896E-3,60.000002384E-3,,,,,492.720007896E-3,20.0000014E-3,
,,,492.800027132E-3,100.0000089E-3,,,,,492.800027132E-3,20.0000014E-3,
,,,492.880016565E-3,60.000002384E-3,,,,,492.880016565E-3,20.0000014E-3,
,,,492.960035801E-3,60.000002384E-3,,,,,492.960035801E-3,20.0000014E-3,
,,,493.040025234E-3,60.000002384E-3,,,,,493.040025234E-3,-20.0000014E-3,
,,,493.120014668E-3,60.000002384E-3,,,,,493.120014668E-3,20.0000014E-3,
,,,493.200033903E-3,60.000002384E-3,,,,,493.200033903E-3,20.0000014E-3,
,,,493.280023336E-3,60.000002384E-3,,,,,493.280023336E-3,20.0000014E-3,
,,,493.360012770E-3,60.000002384E-3,,,,,493.360012770E-3,20.0000014E-3,
,,,493.440032005E-3,60.000002384E-3,,,,,493.440032005E-3,20.0000014E-3,
,,,493.520021439E-3,60.000002384E-3,,,,,493.520021439E-3,20.0000014E-3,
,,,493.600010872E-3,60.000002384E-3,,,,,493.600010872E-3,20.0000014E-3,
,,,493.680030107E-3,60.000002384E-3,,,,,493.680030107E-3,20.0000014E-3,
,,,493.760019541E-3,60.000002384E-3,,,,,493.760019541E-3,20.0000014E-3,
,,,493.840008974E-3,60.000002384E-3,,,,,493.840008974E-3,20.0000014E-3,
,,,493.920028210E-3,60.000002384E-3,,,,,493.920028210E-3,20.0000014E-3,
,,,494.000017643E-3,60.000002384E-3,,,,,494.000017643E-3,20.0000014E-3,
,,,494.080007076E-3,100.0000089E-3,,,,,494.080007076E-3,20.0000014E-3,
,,,494.160026312E-3,60.000002384E-3,,,,,494.160026312E-3,20.0000014E-3,
,,,494.240015745E-3,60.000002384E-3,,,,,494.240015745E-3,20.0000014E-3,
,,,494.320034981E-3,60.000002384E-3,,,,,494.320034981E-3,20.0000014E-3,
,,,494.400024414E-3,60.000002384E-3,,,,,494.400024414E-3,20.0000014E-3,
,,,494.480013847E-3,60.000002384E-3,,,,,494.480013847E-3,60.000002384E-3,
,,,494.560033083E-3,60.000002384E-3,,,,,494.560033083E-3,60.000002384E-3,
,,,494.640022516E-3,60.000002384E-3,,,,,494.640022516E-3,60.000002384E-3,
,,,494.720011950E-3,60.000002384E-3,,,,,494.720011950E-3,60.000002384E-3,
,,,494.800031185E-3,60.000002384E-3,,,,,494.800031185E-3,60.000002384E-3,
,,,494.880020618E-3,60.000002384E-3,,,,,494.880020618E-3,20.0000014E-3,
,,,494.960010052E-3,60.000002384E-3,,,,,494.960010052E-3,60.000002384E-3,
,,,495.040029287E-3,100.0000089E-3,,,,,495.040029287E-3,60.000002384E-3,
,,,495.120018721E-3,60.000002384E-3,,,,,495.120018721E-3,20.0000014E-3,
,,,495.200008154E-3,60.000002384E-3,,,,,495.200008154E-3,60.000002384E-3,
,,,495.280027390E-3,60.000002384E-3,,,,,495.280027390E-3,60.000002384E-3,
,,,495.360016823E-3,60.000002384E-3,,,,,495.360016823E-3,20.0000014E-3,
,,,495.440036058E-3,60.000002384E-3,,,,,495.440036058E-3,20.0000014E-3,
,,,495.520025492E-3,60.000002384E-3,,,,,495.520025492E-3,60.000002384E-3,
,,,495.600014925E-3,60.000002384E-3,,,,,495.600014925E-3,60.000002384E-3,
,,,495.680034161E-3,60.000002384E-3,,,,,495.680034161E-3,60.000002384E-3,
,,,495.760023594E-3,60.000002384E-3,,,,,495.760023594E-3,60.000002384E-3,
,,,495.840013027E-3,100.0000089E-3,,,,,495.840013027E-3,20.0000014E-3,
,,,495.920032263E-3,100.0000089E-3,,,,,495.920032263E-3,60.000002384E-3,
,,,496.000021696E-3,100.0000089E-3,,,,,496.000021696E-3,60.000002384E-3,
,,,496.080011129E-3,60.000002384E-3,,,,,496.080011129E-3,20.0000014E-3,
,,,496.160030365E-3,100.0000089E-3,,,,,496.160030365E-3,60.000002384E-3,
,,,496.240019798E-3,60.000002384E-3,,,,,496.240019798E-3,60.000002384E-3,
,,,496.320009232E-3,60.000002384E-3,,,,,496.320009232E-3,100.0000089E-3,
,,,496.400028467E-3,100.0000089E-3,,,,,496.400028467E-3,60.000002384E-3,
,,,496.480017900E-3,100.0000089E-3,,,,,496.480017900E-3,60.000002384E-3,
,,,496.560007334E-3,60.000002384E-3,,,,,496.560007334E-3,100.0000089E-3,
,,,496.640026569E-3,100.0000089E-3,,,,,496.640026569E-3,100.0000089E-3,
,,,496.720016003E-3,100.0000089E-3,,,,,496.720016003E-3,100.0000089E-3,
,,,496.800035238E-3,100.0000089E-3,,,,,496.800035238E-3,100.0000089E-3,
,,,496.880024672E-3,100.0000089E-3,,,,,496.880024672E-3,100.0000089E-3,
,,,496.960014105E-3,100.0000089E-3,,,,,496.960014105E-3,100.0000089E-3,
,,,497.040033340E-3,100.0000089E-3,,,,,497.040033340E-3,100.0000089E-3,
,,,497.120022774E-3,100.0000089E-3,,,,,497.120022774E-3,140.0000155E-3,
,,,497.200012207E-3,100.0000089E-3,,,,,497.200012207E-3,100.0000089E-3,
,,,497.280031443E-3,100.0000089E-3,,,,,497.280031443E-3,100.0000089E-3,
,,,497.360020876E-3,100.0000089E-3,,,,,497.360020876E-3,140.0000155E-3,
,,,497.440010309E-3,100.0000089E-3,,,,,497.440010309E-3,100.0000089E-3,
,,,497.520029545E-3,100.0000089E-3,,,,,497.520029545E-3,140.0000155E-3,
,,,497.600018978E-3,60.000002384E-3,,,,,497.600018978E-3,140.0000155E-3,
,,,497.680008411E-3,100.0000089E-3,,,,,497.680008411E-3,100.0000089E-3,
,,,497.760027647E-3,100.0000089E-3,,,,,497.760027647E-3,140.0000155E-3,
,,,497.840017080E-3,100.0000089E-3,,,,,497.840017080E-3,140.0000155E-3,
,,,497.920006514E-3,100.0000089E-3,,,,,497.920006514E-3,140.0000155E-3,
,,,498.000025749E-3,100.0000089E-3,,,,,498.000025749E-3,140.0000155E-3,
,,,498.080015182E-3,100.0000089E-3,,,,,498.080015182E-3,100.0000089E-3,
,,,498.160034418E-3,100.0000089E-3,,,,,498.160034418E-3,140.0000155E-3,
,,,498.240023851E-3,100.0000089E-3,,,,,498.240023851E-3,140.0000155E-3,
,,,498.320013285E-3,100.0000089E-3,,,,,498.320013285E-3,140.0000155E-3,
,,,498.400032520E-3,100.0000089E-3,,,,,498.400032520E-3,140.0000155E-3,
,,,498.480021954E-3,100.0000089E-3,,,,,498.480021954E-3,100.0000089E-3,
,,,498.560011387E-3,100.0000089E-3,,,,,498.560011387E-3,140.0000155E-3,
,,,498.640030622E-3,100.0000089E-3,,,,,498.640030622E-3,140.0000155E-3,
,,,498.720020056E-3,100.0000089E-3,,,,,498.720020056E-3,100.0000089E-3,
,,,498.800009489E-3,60.000002384E-3,,,,,498.800009489E-3,100.0000089E-3,
,,,498.880028725E-3,100.0000089E-3,,,,,498.880028725E-3,140.0000155E-3,
,,,498.960018158E-3,100.0000089E-3,,,,,498.960018158E-3,100.0000089E-3,
,,,499.040007591E-3,100.0000089E-3,,,,,499.040007591E-3,100.0000089E-3,
,,,499.120026827E-3,60.000002384E-3,,,,,499.120026827E-3,100.0000089E-3,
,,,499.200016260E-3,100.0000089E-3,,,,,499.200016260E-3,60.000002384E-3,
,,,499.280035496E-3,100.0000089E-3,,,,,499.280035496E-3,100.0000089E-3,
,,,499.360024929E-3,100.0000089E-3,,,,,499.360024929E-3,60.000002384E-3,
,,,499.440014362E-3,60.000002384E-3,,,,,499.440014362E-3,100.0000089E-3,
,,,499.520033598E-3,4.46000051,,,,,499.520033598E-3,2.94000030,
,,,499.600023031E-3,4.38000011,,,,,499.600023031E-3,2.98000026,
,,,499.680012465E-3,4.38000011,,,,,499.680012465E-3,2.98000026,
,,,499.760031700E-3,4.38000011,,,,,499.760031700E-3,3.02000022,
,,,499.840021133E-3,4.38000011,,,,,499.840021133E-3,3.06000018,
