Imágenes/Circuito1/Imagen1.csv

Record Length,2000,Points,-16.0000008E-3,20.0000014E-3,,Record Length,2000,Points,-16.0000008E-3,-10.0000007E-3,
Sample Interval,16.0000000E-6,s,-15.9840006E-3,0.0,,Sample Interval,16.0000000E-6,s,-15.9840006E-3,10.0000007E-3,
Trigger Point,1.0000001E3,Samples,-15.9680005E-3,10.0000007E-3,,Trigger Point,1.0000001E3,Samples,-15.9680005E-3,10.0000007E-3,
,,,-15.9520004E-3,20.0000014E-3,,,,,-15.9520004E-3,0.0,
,,,-15.9360003E-3,20.0000014E-3,,,,,-15.9360003E-3,-10.0000007E-3,
,,,-15.9200002E-3,30.00000119E-3,,,,,-15.9200002E-3,0.0,
Source,CH1,,-15.9040000E-3,10.0000007E-3,,Source,CH2,,-15.9040000E-3,10.0000007E-3,
Vertical Units,V,,-15.8879999E-3,-10.0000007E-3,,Vertical Units,V,,-15.8879999E-3,0.0,
Vertical Scale,250.00001770E-3,,-15.8720016E-3,0.0,,Vertical Scale,250.00001770E-3,,-15.8720016E-3,30.00000119E-3,
Vertical Offset,0,,-15.8560015E-3,-20.0000014E-3,,Vertical Offset,0,,-15.8560015E-3,30.00000119E-3,
Horizontal Units,s,,-15.8400014E-3,0.0,,Horizontal Units,s,,-15.8400014E-3,20.0000014E-3,
Horizontal Scale,3.19999999E-3,,-15.8240013E-3,0.0,,Horizontal Scale,3.19999999E-3,,-15.8240013E-3,20.0000014E-3,
Pt Fmt,Y,,-15.8080012E-3,-10.0000007E-3,,Pt Fmt,Y,,-15.8080012E-3,-10.0000007E-3,
Yzero,-1.6000000,,-15.7920010E-3,-10.0000007E-3,,Yzero,-1.6000000,,-15.7920010E-3,0.0,
,,,-15.7760009E-3,10.0000007E-3,,,,,-15.7760009E-3,-20.0000014E-3,
,,,-15.7600008E-3,20.0000014E-3,,,,,-15.7600008E-3,0.0,
Note,TBS2102 - 9:39:01 AM   10/18/2025,,-15.7440007E-3,-10.0000007E-3,,Note,TBS2102 - 9:39:01 AM   10/18/2025,,-15.7440007E-3,20.0000014E-3,
,,,-15.7280006E-3,-10.0000007E-3,,,,,-15.7280006E-3,0.0,
,,,-15.7120004E-3,10.0000007E-3,,,,,-15.7120004E-3,0.0,
,,,-15.6960003E-3,0.0,,,,,-15.6960003E-3,20.0000014E-3,
,,,-15.6800002E-3,20.0000014E-3,,,,,-15.6800002E-3,0.0,
,,,-15.6640001E-3,0.0,,,,,-15.6640001E-3,-10.0000007E-3,
,,,-15.6479999E-3,10.0000007E-3,,,,,-15.6479999E-3,20.0000014E-3,
,,,-15.6320017E-3,0.0,,,,,-15.6320017E-3,10.0000007E-3,
,,,-15.6160006E-3,0.0,,,,,-15.6160006E-3,0.0,
,,,-15.6000005E-3,20.0000014E-3,,,,,-15.6000005E-3,0.0,
,,,-15.5840004E-3,0.0,,,,,-15.5840004E-3,20.0000014E-3,
,,,-15.5680012E-3,-20.0000014E-3,,,,,-15.5680012E-3,0.0,
,,,-15.5520011E-3,20.0000014E-3,,,,,-15.5520011E-3,0.0,
,,,-15.5360010E-3,0.0,,,,,-15.5360010E-3,20.0000014E-3,
,,,-15.5200008E-3,10.0000007E-3,,,,,-15.5200008E-3,0.0,
,,,-15.5040007E-3,10.0000007E-3,,,,,-15.5040007E-3,30.00000119E-3,
,,,-15.4880006E-3,0.0,,,,,-15.4880006E-3,30.00000119E-3,
,,,-15.4720005E-3,0.0,,,,,-15.4720005E-3,10.0000007E-3,
,,,-15.4560003E-3,10.0000007E-3,,,,,-15.4560003E-3,0.0,
,,,-15.4400012E-3,30.00000119E-3,,,,,-15.4400012E-3,10.0000007E-3,
,,,-15.4240010E-3,20.0000014E-3,,,,,-15.4240010E-3,-10.0000007E-3,
,,,-15.4080009E-3,0.0,,,,,-15.4080009E-3,30.00000119E-3,
,,,-15.3920008E-3,10.0000007E-3,,,,,-15.3920008E-3,-10.0000007E-3,
,,,-15.3760007E-3,0.0,,,,,-15.3760007E-3,10.0000007E-3,
,,,-15.3600005E-3,0.0,,,,,-15.3600005E-3,10.0000007E-3,
,,,-15.3440004E-3,10.0000007E-3,,,,,-15.3440004E-3,0.0,
,,,-15.3280003E-3,10.0000007E-3,,,,,-15.3280003E-3,10.0000007E-3,
,,,-15.3120011E-3,0.0,,,,,-15.3120011E-3,10.0000007E-3,
,,,-15.2960010E-3,0.0,,,,,-15.2960010E-3,-20.0000014E-3,
,,,-15.2800009E-3,-10.0000007E-3,,,,,-15.2800009E-3,10.0000007E-3,
,,,-15.2640007E-3,0.0,,,,,-15.2640007E-3,10.0000007E-3,
,,,-15.2480006E-3,20.0000014E-3,,,,,-15.2480006E-3,10.0000007E-3,
,,,-15.2320005E-3,10.0000007E-3,,,,,-15.2320005E-3,10.0000007E-3,
,,,-15.2160004E-3,10.0000007E-3,,,,,-15.2160004E-3,20.0000014E-3,
,,,-15.2000012E-3,10.0000007E-3,,,,,-15.2000012E-3,10.0000007E-3,
,,,-15.1840011E-3,-10.0000007E-3,,,,,-15.1840011E-3,10.0000007E-3,
,,,-15.1680009E-3,10.0000007E-3,,,,,-15.1680009E-3,-10.0000007E-3,
,,,-15.1520008E-3,0.0,,,,,-15.1520008E-3,-10.0000007E-3,
,,,-15.1360007E-3,20.0000014E-3,,,,,-15.1360007E-3,0.0,
,,,-15.1200006E-3,0.0,,,,,-15.1200006E-3,20.0000014E-3,
,,,-15.1040005E-3,-10.0000007E-3,,,,,-15.1040005E-3,10.0000007E-3,
,,,-15.0880003E-3,10.0000007E-3,,,,,-15.0880003E-3,20.0000014E-3,
,,,-15.0720011E-3,10.0000007E-3,,,,,-15.0720011E-3,10.0000007E-3,
,,,-15.0560010E-3,-10.0000007E-3,,,,,-15.0560010E-3,30.00000119E-3,
,,,-15.0400009E-3,10.0000007E-3,,,,,-15.0400009E-3,10.0000007E-3,
,,,-15.0240008E-3,0.0,,,,,-15.0240008E-3,0.0,
,,,-15.0080007E-3,10.0000007E-3,,,,,-15.0080007E-3,30.00000119E-3,
,,,-14.9920005E-3,0.0,,,,,-14.9920005E-3,20.0000014E-3,
,,,-14.9760004E-3,10.0000007E-3,,,,,-14.9760004E-3,10.0000007E-3,
,,,-14.9600012E-3,10.0000007E-3,,,,,-14.9600012E-3,20.0000014E-3,
,,,-14.9440011E-3,-10.0000007E-3,,,,,-14.9440011E-3,30.00000119E-3,
,,,-14.9280010E-3,0.0,,,,,-14.9280010E-3,20.0000014E-3,
,,,-14.9120009E-3,0.0,,,,,-14.9120009E-3,30.00000119E-3,
,,,-14.8960007E-3,-10.0000007E-3,,,,,-14.8960007E-3,20.0000014E-3,
,,,-14.8800006E-3,0.0,,,,,-14.8800006E-3,40.00000283E-3,
,,,-14.8640005E-3,10.0000007E-3,,,,,-14.8640005E-3,20.0000014E-3,
,,,-14.8480004E-3,-10.0000007E-3,,,,,-14.8480004E-3,30.00000119E-3,
,,,-14.8320012E-3,10.0000007E-3,,,,,-14.8320012E-3,20.0000014E-3,
,,,-14.8160011E-3,10.0000007E-3,,,,,-14.8160011E-3,10.0000007E-3,
,,,-14.8000009E-3,10.0000007E-3,,,,,-14.8000009E-3,30.00000119E-3,
,,,-14.7840008E-3,10.0000007E-3,,,,,-14.7840008E-3,40.00000283E-3,
,,,-14.7680007E-3,0.0,,,,,-14.7680007E-3,20.0000014E-3,
,,,-14.7520006E-3,10.0000007E-3,,,,,-14.7520006E-3,10.0000007E-3,
,,,-14.7360004E-3,10.0000007E-3,,,,,-14.7360004E-3,0.0,
,,,-14.7200003E-3,-10.0000007E-3,,,,,-14.7200003E-3,30.00000119E-3,
,,,-14.7040011E-3,-10.0000007E-3,,,,,-14.7040011E-3,20.0000014E-3,
,,,-14.6880010E-3,10.0000007E-3,,,,,-14.6880010E-3,20.0000014E-3,
,,,-14.6720009E-3,10.0000007E-3,,,,,-14.6720009E-3,10.0000007E-3,
,,,-14.6560008E-3,10.0000007E-3,,,,,-14.6560008E-3,20.0000014E-3,
,,,-14.6400006E-3,10.0000007E-3,,,,,-14.6400006E-3,20.0000014E-3,
,,,-14.6240005E-3,10.0000007E-3,,,,,-14.6240005E-3,0.0,
,,,-14.6080004E-3,10.0000007E-3,,,,,-14.6080004E-3,10.0000007E-3,
,,,-14.5920012E-3,-10.0000007E-3,,,,,-14.5920012E-3,40.00000283E-3,
,,,-14.5760011E-3,-20.0000014E-3,,,,,-14.5760011E-3,40.00000283E-3,
,,,-14.5600010E-3,10.0000007E-3,,,,,-14.5600010E-3,20.0000014E-3,
,,,-14.5440008E-3,10.0000007E-3,,,,,-14.5440008E-3,10.0000007E-3,
,,,-14.5280007E-3,10.0000007E-3,,,,,-14.5280007E-3,10.0000007E-3,
,,,-14.5120006E-3,10.0000007E-3,,,,,-14.5120006E-3,0.0,
,,,-14.4960005E-3,10.0000007E-3,,,,,-14.4960005E-3,30.00000119E-3,
,,,-14.4800004E-3,30.00000119E-3,,,,,-14.4800004E-3,0.0,
,,,-14.4640012E-3,30.00000119E-3,,,,,-14.4640012E-3,10.0000007E-3,
,,,-14.4480010E-3,0.0,,,,,-14.4480010E-3,0.0,
,,,-14.4320009E-3,-50.00000447E-3,,,,,-14.4320009E-3,10.0000007E-3,
,,,-14.4160008E-3,-10.0000007E-3,,,,,-14.4160008E-3,30.00000119E-3,
,,,-14.4000007E-3,10.0000007E-3,,,,,-14.4000007E-3,20.0000014E-3,
,,,-14.3840006E-3,-20.0000014E-3,,,,,-14.3840006E-3,30.00000119E-3,
,,,-14.3680004E-3,20.0000014E-3,,,,,-14.3680004E-3,20.0000014E-3,
,,,-14.3520003E-3,20.0000014E-3,,,,,-14.3520003E-3,20.0000014E-3,
,,,-14.3360011E-3,0.0,,,,,-14.3360011E-3,10.0000007E-3,
,,,-14.3200010E-3,10.0000007E-3,,,,,-14.3200010E-3,10.0000007E-3,
,,,-14.3040009E-3,-20.0000014E-3,,,,,-14.3040009E-3,20.0000014E-3,
,,,-14.2880008E-3,-10.0000007E-3,,,,,-14.2880008E-3,30.00000119E-3,
,,,-14.2720006E-3,10.0000007E-3,,,,,-14.2720006E-3,40.00000283E-3,
,,,-14.2560005E-3,10.0000007E-3,,,,,-14.2560005E-3,30.00000119E-3,
,,,-14.2400004E-3,30.00000119E-3,,,,,-14.2400004E-3,-10.0000007E-3,
,,,-14.2240012E-3,20.0000014E-3,,,,,-14.2240012E-3,0.0,
,,,-14.2080011E-3,30.00000119E-3,,,,,-14.2080011E-3,0.0,
,,,-14.1920010E-3,0.0,,,,,-14.1920010E-3,40.00000283E-3,
,,,-14.1760008E-3,20.0000014E-3,,,,,-14.1760008E-3,0.0,
,,,-14.1600007E-3,30.00000119E-3,,,,,-14.1600007E-3,10.0000007E-3,
,,,-14.1440006E-3,20.0000014E-3,,,,,-14.1440006E-3,20.0000014E-3,
,,,-14.1280005E-3,50.00000447E-3,,,,,-14.1280005E-3,10.0000007E-3,
,,,-14.1120004E-3,20.0000014E-3,,,,,-14.1120004E-3,10.0000007E-3,
,,,-14.0960012E-3,0.0,,,,,-14.0960012E-3,0.0,
,,,-14.0800010E-3,0.0,,,,,-14.0800010E-3,0.0,
,,,-14.0640009E-3,-10.0000007E-3,,,,,-14.0640009E-3,10.0000007E-3,
,,,-14.0480008E-3,-10.0000007E-3,,,,,-14.0480008E-3,20.0000014E-3,
,,,-14.0320007E-3,10.0000007E-3,,,,,-14.0320007E-3,10.0000007E-3,
,,,-14.0160006E-3,0.0,,,,,-14.0160006E-3,30.00000119E-3,
,,,-14.0000004E-3,10.0000007E-3,,,,,-14.0000004E-3,10.0000007E-3,
,,,-13.9840003E-3,10.0000007E-3,,,,,-13.9840003E-3,-10.0000007E-3,
,,,-13.9680011E-3,0.0,,,,,-13.9680011E-3,-10.0000007E-3,
,,,-13.9520010E-3,0.0,,,,,-13.9520010E-3,20.0000014E-3,
,,,-13.9360009E-3,-10.0000007E-3,,,,,-13.9360009E-3,10.0000007E-3,
,,,-13.9200008E-3,10.0000007E-3,,,,,-13.9200008E-3,0.0,
,,,-13.9040006E-3,-20.0000014E-3,,,,,-13.9040006E-3,0.0,
,,,-13.8880005E-3,20.0000014E-3,,,,,-13.8880005E-3,0.0,
,,,-13.8720004E-3,-10.0000007E-3,,,,,-13.8720004E-3,0.0,
,,,-13.8560012E-3,20.0000014E-3,,,,,-13.8560012E-3,10.0000007E-3,
,,,-13.8400011E-3,10.0000007E-3,,,,,-13.8400011E-3,0.0,
,,,-13.8240010E-3,0.0,,,,,-13.8240010E-3,0.0,
,,,-13.8080008E-3,10.0000007E-3,,,,,-13.8080008E-3,0.0,
,,,-13.7920007E-3,0.0,,,,,-13.7920007E-3,10.0000007E-3,
,,,-13.7760006E-3,20.0000014E-3,,,,,-13.7760006E-3,-10.0000007E-3,
,,,-13.7600005E-3,10.0000007E-3,,,,,-13.7600005E-3,-10.0000007E-3,
,,,-13.7440003E-3,10.0000007E-3,,,,,-13.7440003E-3,-10.0000007E-3,
,,,-13.7280012E-3,-20.0000014E-3,,,,,-13.7280012E-3,30.00000119E-3,
,,,-13.7120010E-3,-10.0000007E-3,,,,,-13.7120010E-3,10.0000007E-3,
,,,-13.6960009E-3,20.0000014E-3,,,,,-13.6960009E-3,0.0,
,,,-13.6800008E-3,10.0000007E-3,,,,,-13.6800008E-3,0.0,
,,,-13.6640007E-3,10.0000007E-3,,,,,-13.6640007E-3,0.0,
,,,-13.6480005E-3,10.0000007E-3,,,,,-13.6480005E-3,0.0,
,,,-13.6320004E-3,20.0000014E-3,,,,,-13.6320004E-3,40.00000283E-3,
,,,-13.6160003E-3,10.0000007E-3,,,,,-13.6160003E-3,0.0,
,,,-13.6000011E-3,10.0000007E-3,,,,,-13.6000011E-3,20.0000014E-3,
,,,-13.5840010E-3,30.00000119E-3,,,,,-13.5840010E-3,10.0000007E-3,
,,,-13.5680009E-3,0.0,,,,,-13.5680009E-3,40.00000283E-3,
,,,-13.5520007E-3,10.0000007E-3,,,,,-13.5520007E-3,10.0000007E-3,
,,,-13.5360006E-3,20.0000014E-3,,,,,-13.5360006E-3,20.0000014E-3,
,,,-13.5200005E-3,0.0,,,,,-13.5200005E-3,40.00000283E-3,
,,,-13.5040004E-3,10.0000007E-3,,,,,-13.5040004E-3,20.0000014E-3,
,,,-13.4880012E-3,0.0,,,,,-13.4880012E-3,30.00000119E-3,
,,,-13.4720011E-3,20.0000014E-3,,,,,-13.4720011E-3,0.0,
,,,-13.4560009E-3,-20.0000014E-3,,,,,-13.4560009E-3,0.0,
,,,-13.4400008E-3,0.0,,,,,-13.4400008E-3,30.00000119E-3,
,,,-13.4240007E-3,10.0000007E-3,,,,,-13.4240007E-3,10.0000007E-3,
,,,-13.4080006E-3,0.0,,,,,-13.4080006E-3,20.0000014E-3,
,,,-13.3920005E-3,10.0000007E-3,,,,,-13.3920005E-3,0.0,
,,,-13.3760003E-3,30.00000119E-3,,,,,-13.3760003E-3,-10.0000007E-3,
,,,-13.3600011E-3,0.0,,,,,-13.3600011E-3,10.0000007E-3,
,,,-13.3440010E-3,10.0000007E-3,,,,,-13.3440010E-3,0.0,
,,,-13.3280009E-3,0.0,,,,,-13.3280009E-3,20.0000014E-3,
,,,-13.3120008E-3,-10.0000007E-3,,,,,-13.3120008E-3,10.0000007E-3,
,,,-13.2960007E-3,-20.0000014E-3,,,,,-13.2960007E-3,30.00000119E-3,
,,,-13.2800005E-3,10.0000007E-3,,,,,-13.2800005E-3,30.00000119E-3,
,,,-13.2640004E-3,0.0,,,,,-13.2640004E-3,30.00000119E-3,
,,,-13.2480012E-3,10.0000007E-3,,,,,-13.2480012E-3,10.0000007E-3,
,,,-13.2320011E-3,30.00000119E-3,,,,,-13.2320011E-3,0.0,
,,,-13.2160010E-3,20.0000014E-3,,,,,-13.2160010E-3,20.0000014E-3,
,,,-13.2000009E-3,10.0000007E-3,,,,,-13.2000009E-3,0.0,
,,,-13.1840007E-3,20.0000014E-3,,,,,-13.1840007E-3,20.0000014E-3,
,,,-13.1680006E-3,0.0,,,,,-13.1680006E-3,20.0000014E-3,
,,,-13.1520005E-3,20.0000014E-3,,,,,-13.1520005E-3,30.00000119E-3,
,,,-13.1360004E-3,10.0000007E-3,,,,,-13.1360004E-3,30.00000119E-3,
,,,-13.1200012E-3,30.00000119E-3,,,,,-13.1200012E-3,0.0,
,,,-13.1040011E-3,10.0000007E-3,,,,,-13.1040011E-3,-10.0000007E-3,
,,,-13.0880009E-3,20.0000014E-3,,,,,-13.0880009E-3,0.0,
,,,-13.0720008E-3,10.0000007E-3,,,,,-13.0720008E-3,20.0000014E-3,
,,,-13.0560007E-3,20.0000014E-3,,,,,-13.0560007E-3,10.0000007E-3,
,,,-13.0400006E-3,10.0000007E-3,,,,,-13.0400006E-3,10.0000007E-3,
,,,-13.0240005E-3,0.0,,,,,-13.0240005E-3,20.0000014E-3,
,,,-13.0080003E-3,20.0000014E-3,,,,,-13.0080003E-3,10.0000007E-3,
,,,-12.9920011E-3,30.00000119E-3,,,,,-12.9920011E-3,-20.0000014E-3,
,,,-12.9760010E-3,20.0000014E-3,,,,,-12.9760010E-3,10.0000007E-3,
,,,-12.9600009E-3,-10.0000007E-3,,,,,-12.9600009E-3,20.0000014E-3,
,,,-12.9440008E-3,10.0000007E-3,,,,,-12.9440008E-3,0.0,
,,,-12.9280007E-3,20.0000014E-3,,,,,-12.9280007E-3,-10.0000007E-3,
,,,-12.9120005E-3,20.0000014E-3,,,,,-12.9120005E-3,10.0000007E-3,
,,,-12.8960004E-3,20.0000014E-3,,,,,-12.8960004E-3,0.0,
,,,-12.8800012E-3,-20.0000014E-3,,,,,-12.8800012E-3,20.0000014E-3,
,,,-12.8640011E-3,20.0000014E-3,,,,,-12.8640011E-3,10.0000007E-3,
,,,-12.8480010E-3,20.0000014E-3,,,,,-12.8480010E-3,-10.0000007E-3,
,,,-12.8320009E-3,0.0,,,,,-12.8320009E-3,20.0000014E-3,
,,,-12.8160007E-3,-10.0000007E-3,,,,,-12.8160007E-3,30.00000119E-3,
,,,-12.8000006E-3,0.0,,,,,-12.8000006E-3,0.0,
,,,-12.7840005E-3,0.0,,,,,-12.7840005E-3,0.0,
,,,-12.7680004E-3,10.0000007E-3,,,,,-12.7680004E-3,10.0000007E-3,
,,,-12.7520012E-3,0.0,,,,,-12.7520012E-3,0.0,
,,,-12.7360011E-3,10.0000007E-3,,,,,-12.7360011E-3,20.0000014E-3,
,,,-12.7200009E-3,0.0,,,,,-12.7200009E-3,20.0000014E-3,
,,,-12.7040008E-3,20.0000014E-3,,,,,-12.7040008E-3,10.0000007E-3,
,,,-12.6880007E-3,20.0000014E-3,,,,,-12.6880007E-3,10.0000007E-3,
,,,-12.6720006E-3,20.0000014E-3,,,,,-12.6720006E-3,0.0,
,,,-12.6560004E-3,0.0,,,,,-12.6560004E-3,20.0000014E-3,
,,,-12.6400003E-3,-20.0000014E-3,,,,,-12.6400003E-3,10.0000007E-3,
,,,-12.6240011E-3,-10.0000007E-3,,,,,-12.6240011E-3,10.0000007E-3,
,,,-12.6080010E-3,-10.0000007E-3,,,,,-12.6080010E-3,30.00000119E-3,
,,,-12.5920009E-3,0.0,,,,,-12.5920009E-3,10.0000007E-3,
,,,-12.5760008E-3,10.0000007E-3,,,,,-12.5760008E-3,10.0000007E-3,
,,,-12.5600006E-3,20.0000014E-3,,,,,-12.5600006E-3,40.00000283E-3,
,,,-12.5440005E-3,10.0000007E-3,,,,,-12.5440005E-3,10.0000007E-3,
,,,-12.5280004E-3,10.0000007E-3,,,,,-12.5280004E-3,-10.0000007E-3,
,,,-12.5120012E-3,30.00000119E-3,,,,,-12.5120012E-3,10.0000007E-3,
,,,-12.4960011E-3,10.0000007E-3,,,,,-12.4960011E-3,30.00000119E-3,
,,,-12.4800010E-3,0.0,,,,,-12.4800010E-3,30.00000119E-3,
,,,-12.4640008E-3,10.0000007E-3,,,,,-12.4640008E-3,30.00000119E-3,
,,,-12.4480007E-3,0.0,,,,,-12.4480007E-3,20.0000014E-3,
,,,-12.4320006E-3,0.0,,,,,-12.4320006E-3,10.0000007E-3,
,,,-12.4160005E-3,0.0,,,,,-12.4160005E-3,20.0000014E-3,
,,,-12.4000004E-3,10.0000007E-3,,,,,-12.4000004E-3,30.00000119E-3,
,,,-12.3840012E-3,0.0,,,,,-12.3840012E-3,0.0,
,,,-12.3680010E-3,20.0000014E-3,,,,,-12.3680010E-3,20.0000014E-3,
,,,-12.3520009E-3,10.0000007E-3,,,,,-12.3520009E-3,0.0,
,,,-12.3360008E-3,10.0000007E-3,,,,,-12.3360008E-3,20.0000014E-3,
,,,-12.3200007E-3,0.0,,,,,-12.3200007E-3,10.0000007E-3,
,,,-12.3040006E-3,10.0000007E-3,,,,,-12.3040006E-3,10.0000007E-3,
,,,-12.2880004E-3,10.0000007E-3,,,,,-12.2880004E-3,20.0000014E-3,
,,,-12.2720003E-3,-10.0000007E-3,,,,,-12.2720003E-3,40.00000283E-3,
,,,-12.2560011E-3,30.00000119E-3,,,,,-12.2560011E-3,30.00000119E-3,
,,,-12.2400010E-3,-10.0000007E-3,,,,,-12.2400010E-3,30.00000119E-3,
,,,-12.2240009E-3,-20.0000014E-3,,,,,-12.2240009E-3,50.00000447E-3,
,,,-12.2080008E-3,20.0000014E-3,,,,,-12.2080008E-3,10.0000007E-3,
,,,-12.1920006E-3,0.0,,,,,-12.1920006E-3,0.0,
,,,-12.1760005E-3,0.0,,,,,-12.1760005E-3,0.0,
,,,-12.1600004E-3,10.0000007E-3,,,,,-12.1600004E-3,10.0000007E-3,
,,,-12.1440012E-3,20.0000014E-3,,,,,-12.1440012E-3,-10.0000007E-3,
,,,-12.1280011E-3,20.0000014E-3,,,,,-12.1280011E-3,20.0000014E-3,
,,,-12.1120010E-3,0.0,,,,,-12.1120010E-3,20.0000014E-3,
,,,-12.0960008E-3,-10.0000007E-3,,,,,-12.0960008E-3,50.00000447E-3,
,,,-12.0800007E-3,-20.0000014E-3,,,,,-12.0800007E-3,10.0000007E-3,
,,,-12.0640006E-3,20.0000014E-3,,,,,-12.0640006E-3,-10.0000007E-3,
,,,-12.0480005E-3,30.00000119E-3,,,,,-12.0480005E-3,10.0000007E-3,
,,,-12.0320003E-3,30.00000119E-3,,,,,-12.0320003E-3,-10.0000007E-3,
,,,-12.0160012E-3,10.0000007E-3,,,,,-12.0160012E-3,10.0000007E-3,
,,,-12.0000010E-3,20.0000014E-3,,,,,-12.0000010E-3,0.0,
,,,-11.9840009E-3,0.0,,,,,-11.9840009E-3,30.00000119E-3,
,,,-11.9680008E-3,20.0000014E-3,,,,,-11.9680008E-3,-10.0000007E-3,
,,,-11.9520007E-3,0.0,,,,,-11.9520007E-3,0.0,
,,,-11.9360005E-3,0.0,,,,,-11.9360005E-3,40.00000283E-3,
,,,-11.9200004E-3,0.0,,,,,-11.9200004E-3,0.0,
,,,-11.9040012E-3,-20.0000014E-3,,,,,-11.9040012E-3,20.0000014E-3,
,,,-11.8880011E-3,20.0000014E-3,,,,,-11.8880011E-3,-20.0000014E-3,
,,,-11.8720010E-3,10.0000007E-3,,,,,-11.8720010E-3,10.0000007E-3,
,,,-11.8560009E-3,20.0000014E-3,,,,,-11.8560009E-3,0.0,
,,,-11.8400007E-3,0.0,,,,,-11.8400007E-3,30.00000119E-3,
,,,-11.8240006E-3,10.0000007E-3,,,,,-11.8240006E-3,20.0000014E-3,
,,,-11.8080005E-3,20.0000014E-3,,,,,-11.8080005E-3,50.00000447E-3,
,,,-11.7920004E-3,-10.0000007E-3,,,,,-11.7920004E-3,0.0,
,,,-11.7760012E-3,20.0000014E-3,,,,,-11.7760012E-3,0.0,
,,,-11.7600011E-3,20.0000014E-3,,,,,-11.7600011E-3,20.0000014E-3,
,,,-11.7440009E-3,10.0000007E-3,,,,,-11.7440009E-3,0.0,
,,,-11.7280008E-3,-10.0000007E-3,,,,,-11.7280008E-3,0.0,
,,,-11.7120007E-3,20.0000014E-3,,,,,-11.7120007E-3,10.0000007E-3,
,,,-11.6960006E-3,0.0,,,,,-11.6960006E-3,20.0000014E-3,
,,,-11.6800005E-3,0.0,,,,,-11.6800005E-3,40.00000283E-3,
,,,-11.6640003E-3,10.0000007E-3,,,,,-11.6640003E-3,30.00000119E-3,
,,,-11.6480011E-3,0.0,,,,,-11.6480011E-3,10.0000007E-3,
,,,-11.6320010E-3,-20.0000014E-3,,,,,-11.6320010E-3,-20.0000014E-3,
,,,-11.6160009E-3,20.0000014E-3,,,,,-11.6160009E-3,30.00000119E-3,
,,,-11.6000008E-3,20.0000014E-3,,,,,-11.6000008E-3,20.0000014E-3,
,,,-11.5840007E-3,-10.0000007E-3,,,,,-11.5840007E-3,10.0000007E-3,
,,,-11.5680005E-3,40.00000283E-3,,,,,-11.5680005E-3,20.0000014E-3,
,,,-11.5520004E-3,0.0,,,,,-11.5520004E-3,-10.0000007E-3,
,,,-11.5360012E-3,10.0000007E-3,,,,,-11.5360012E-3,-10.0000007E-3,
,,,-11.5200011E-3,20.0000014E-3,,,,,-11.5200011E-3,-10.0000007E-3,
,,,-11.5040010E-3,70.000007749E-3,,,,,-11.5040010E-3,0.0,
,,,-11.4880009E-3,20.0000014E-3,,,,,-11.4880009E-3,0.0,
,,,-11.4720007E-3,10.0000007E-3,,,,,-11.4720007E-3,10.0000007E-3,
,,,-11.4560006E-3,0.0,,,,,-11.4560006E-3,10.0000007E-3,
,,,-11.4400005E-3,-10.0000007E-3,,,,,-11.4400005E-3,10.0000007E-3,
,,,-11.4240004E-3,10.0000007E-3,,,,,-11.4240004E-3,10.0000007E-3,
,,,-11.4080012E-3,0.0,,,,,-11.4080012E-3,10.0000007E-3,
,,,-11.3920011E-3,0.0,,,,,-11.3920011E-3,20.0000014E-3,
,,,-11.3760009E-3,0.0,,,,,-11.3760009E-3,-20.0000014E-3,
,,,-11.3600008E-3,30.00000119E-3,,,,,-11.3600008E-3,-10.0000007E-3,
,,,-11.3440007E-3,10.0000007E-3,,,,,-11.3440007E-3,20.0000014E-3,
,,,-11.3280006E-3,0.0,,,,,-11.3280006E-3,0.0,
,,,-11.3120005E-3,10.0000007E-3,,,,,-11.3120005E-3,10.0000007E-3,
,,,-11.2960003E-3,0.0,,,,,-11.2960003E-3,20.0000014E-3,
,,,-11.2800011E-3,20.0000014E-3,,,,,-11.2800011E-3,20.0000014E-3,
,,,-11.2640010E-3,0.0,,,,,-11.2640010E-3,-10.0000007E-3,
,,,-11.2480009E-3,20.0000014E-3,,,,,-11.2480009E-3,0.0,
,,,-11.2320008E-3,10.0000007E-3,,,,,-11.2320008E-3,10.0000007E-3,
,,,-11.2160007E-3,20.0000014E-3,,,,,-11.2160007E-3,0.0,
,,,-11.2000005E-3,-20.0000014E-3,,,,,-11.2000005E-3,20.0000014E-3,
,,,-11.1840004E-3,0.0,,,,,-11.1840004E-3,10.0000007E-3,
,,,-11.1680012E-3,20.0000014E-3,,,,,-11.1680012E-3,-10.0000007E-3,
,,,-11.1520011E-3,20.0000014E-3,,,,,-11.1520011E-3,10.0000007E-3,
,,,-11.1360010E-3,0.0,,,,,-11.1360010E-3,0.0,
,,,-11.1200009E-3,-10.0000007E-3,,,,,-11.1200009E-3,10.0000007E-3,
,,,-11.1040007E-3,-10.0000007E-3,,,,,-11.1040007E-3,-10.0000007E-3,
,,,-11.0880006E-3,10.0000007E-3,,,,,-11.0880006E-3,20.0000014E-3,
,,,-11.0720005E-3,20.0000014E-3,,,,,-11.0720005E-3,0.0,
,,,-11.0560004E-3,0.0,,,,,-11.0560004E-3,10.0000007E-3,
,,,-11.0400012E-3,-20.0000014E-3,,,,,-11.0400012E-3,20.0000014E-3,
,,,-11.0240011E-3,20.0000014E-3,,,,,-11.0240011E-3,10.0000007E-3,
,,,-11.0080009E-3,20.0000014E-3,,,,,-11.0080009E-3,0.0,
,,,-10.9920008E-3,10.0000007E-3,,,,,-10.9920008E-3,10.0000007E-3,
,,,-10.9760007E-3,0.0,,,,,-10.9760007E-3,50.00000447E-3,
,,,-10.9600006E-3,20.0000014E-3,,,,,-10.9600006E-3,10.0000007E-3,
