Imágenes/Circuito4/Analisis C3/Imagen7.csv

Record Length,2000,Points,736.640036106E-3,12.0000001E-3,,Record Length,2000,Points,736.640036106E-3,4.00000019E-3,
Sample Interval,31.99999992E-6,s,736.672043800E-3,12.0000001E-3,,Sample Interval,31.99999992E-6,s,736.672043800E-3,4.00000019E-3,
Trigger Point,-23.02000228E3,Samples,736.704051495E-3,20.0000014E-3,,Trigger Point,-23.02000228E3,Samples,736.704051495E-3,12.0000001E-3,
,,,736.736059189E-3,20.0000014E-3,,,,,736.736059189E-3,12.0000001E-3,
,,,736.768007278E-3,20.0000014E-3,,,,,736.768007278E-3,12.0000001E-3,
,,,736.800014973E-3,20.0000014E-3,,,,,736.800014973E-3,4.00000019E-3,
Source,CH1,,736.832022667E-3,12.0000001E-3,,Source,CH2,,736.832022667E-3,12.0000001E-3,
Vertical Units,V,,736.864030361E-3,20.0000014E-3,,Vertical Units,V,,736.864030361E-3,4.00000019E-3,
Vertical Scale,200.00000950E-3,,736.896038055E-3,20.0000014E-3,,Vertical Scale,200.00000950E-3,,736.896038055E-3,4.00000019E-3,
Vertical Offset,0,,736.928045750E-3,20.0000014E-3,,Vertical Offset,0,,736.928045750E-3,4.00000019E-3,
Horizontal Units,s,,736.960053444E-3,12.0000001E-3,,Horizontal Units,s,,736.960053444E-3,4.00000019E-3,
Horizontal Scale,6.39999998E-3,,736.992061138E-3,12.0000001E-3,,Horizontal Scale,6.39999998E-3,,736.992061138E-3,-12.0000001E-3,
Pt Fmt,Y,,737.024009228E-3,20.0000014E-3,,Pt Fmt,Y,,737.024009228E-3,-4.00000019E-3,
Yzero,-2.7000000,,737.056016922E-3,12.0000001E-3,,Yzero,-2.7000000,,737.056016922E-3,-4.00000019E-3,
,,,737.088024616E-3,20.0000014E-3,,,,,737.088024616E-3,4.00000019E-3,
,,,737.120032310E-3,20.0000014E-3,,,,,737.120032310E-3,4.00000019E-3,
Note,TBS2102B - 6:42:53 PM   10/23/2025,,737.152040005E-3,20.0000014E-3,,Note,TBS2102B - 6:42:53 PM   10/23/2025,,737.152040005E-3,4.00000019E-3,
,,,737.184047699E-3,20.0000014E-3,,,,,737.184047699E-3,-4.00000019E-3,
,,,737.216055393E-3,20.0000014E-3,,,,,737.216055393E-3,4.00000019E-3,
,,,737.248063087E-3,12.0000001E-3,,,,,737.248063087E-3,4.00000019E-3,
,,,737.280011177E-3,20.0000014E-3,,,,,737.280011177E-3,12.0000001E-3,
,,,737.312018871E-3,20.0000014E-3,,,,,737.312018871E-3,12.0000001E-3,
,,,737.344026566E-3,20.0000014E-3,,,,,737.344026566E-3,4.00000019E-3,
,,,737.376034260E-3,20.0000014E-3,,,,,737.376034260E-3,12.0000001E-3,
,,,737.408041954E-3,20.0000014E-3,,,,,737.408041954E-3,4.00000019E-3,
,,,737.440049648E-3,20.0000014E-3,,,,,737.440049648E-3,-4.00000019E-3,
,,,737.472057343E-3,20.0000014E-3,,,,,737.472057343E-3,12.0000001E-3,
,,,737.504065037E-3,20.0000014E-3,,,,,737.504065037E-3,4.00000019E-3,
,,,737.536013126E-3,20.0000014E-3,,,,,737.536013126E-3,4.00000019E-3,
,,,737.568020821E-3,20.0000014E-3,,,,,737.568020821E-3,-4.00000019E-3,
,,,737.600028515E-3,20.0000014E-3,,,,,737.600028515E-3,4.00000019E-3,
,,,737.632036209E-3,20.0000014E-3,,,,,737.632036209E-3,4.00000019E-3,
,,,737.664043903E-3,20.0000014E-3,,,,,737.664043903E-3,4.00000019E-3,
,,,737.696051598E-3,20.0000014E-3,,,,,737.696051598E-3,4.00000019E-3,
,,,737.728059292E-3,28.00000086E-3,,,,,737.728059292E-3,36.00000218E-3,
,,,737.760007381E-3,20.0000014E-3,,,,,737.760007381E-3,4.00000019E-3,
,,,737.792015076E-3,20.0000014E-3,,,,,737.792015076E-3,4.00000019E-3,
,,,737.824022770E-3,28.00000086E-3,,,,,737.824022770E-3,12.0000001E-3,
,,,737.856030464E-3,28.00000086E-3,,,,,737.856030464E-3,12.0000001E-3,
,,,737.888038158E-3,12.0000001E-3,,,,,737.888038158E-3,20.0000014E-3,
,,,737.920045853E-3,20.0000014E-3,,,,,737.920045853E-3,4.00000019E-3,
,,,737.952053547E-3,20.0000014E-3,,,,,737.952053547E-3,12.0000001E-3,
,,,737.984061241E-3,20.0000014E-3,,,,,737.984061241E-3,12.0000001E-3,
,,,738.016009331E-3,20.0000014E-3,,,,,738.016009331E-3,20.0000014E-3,
,,,738.048017025E-3,12.0000001E-3,,,,,738.048017025E-3,12.0000001E-3,
,,,738.080024719E-3,20.0000014E-3,,,,,738.080024719E-3,12.0000001E-3,
,,,738.112032413E-3,12.0000001E-3,,,,,738.112032413E-3,4.00000019E-3,
,,,738.144040108E-3,20.0000014E-3,,,,,738.144040108E-3,12.0000001E-3,
,,,738.176047802E-3,12.0000001E-3,,,,,738.176047802E-3,-4.00000019E-3,
,,,738.208055496E-3,20.0000014E-3,,,,,738.208055496E-3,-4.00000019E-3,
,,,738.240063190E-3,12.0000001E-3,,,,,738.240063190E-3,12.0000001E-3,
,,,738.272011280E-3,20.0000014E-3,,,,,738.272011280E-3,4.00000019E-3,
,,,738.304018974E-3,12.0000001E-3,,,,,738.304018974E-3,12.0000001E-3,
,,,738.336026669E-3,20.0000014E-3,,,,,738.336026669E-3,-20.0000014E-3,
,,,738.368034363E-3,20.0000014E-3,,,,,738.368034363E-3,20.0000014E-3,
,,,738.400042057E-3,20.0000014E-3,,,,,738.400042057E-3,12.0000001E-3,
,,,738.432049751E-3,20.0000014E-3,,,,,738.432049751E-3,12.0000001E-3,
,,,738.464057446E-3,12.0000001E-3,,,,,738.464057446E-3,12.0000001E-3,
,,,738.496065140E-3,12.0000001E-3,,,,,738.496065140E-3,4.00000019E-3,
,,,738.528013229E-3,12.0000001E-3,,,,,738.528013229E-3,12.0000001E-3,
,,,738.560020924E-3,20.0000014E-3,,,,,738.560020924E-3,12.0000001E-3,
,,,738.592028618E-3,12.0000001E-3,,,,,738.592028618E-3,-36.00000218E-3,
,,,738.624036312E-3,20.0000014E-3,,,,,738.624036312E-3,4.00000019E-3,
,,,738.656044006E-3,20.0000014E-3,,,,,738.656044006E-3,12.0000001E-3,
,,,738.688051701E-3,28.00000086E-3,,,,,738.688051701E-3,36.00000218E-3,
,,,738.720059395E-3,12.0000001E-3,,,,,738.720059395E-3,-4.00000019E-3,
,,,738.752007484E-3,20.0000014E-3,,,,,738.752007484E-3,4.00000019E-3,
,,,738.784015179E-3,12.0000001E-3,,,,,738.784015179E-3,-4.00000019E-3,
,,,738.816022873E-3,20.0000014E-3,,,,,738.816022873E-3,-4.00000019E-3,
,,,738.848030567E-3,12.0000001E-3,,,,,738.848030567E-3,4.00000019E-3,
,,,738.880038261E-3,20.0000014E-3,,,,,738.880038261E-3,4.00000019E-3,
,,,738.912045956E-3,12.0000001E-3,,,,,738.912045956E-3,-4.00000019E-3,
,,,738.944053650E-3,20.0000014E-3,,,,,738.944053650E-3,4.00000019E-3,
,,,738.976061344E-3,20.0000014E-3,,,,,738.976061344E-3,12.0000001E-3,
,,,739.008009434E-3,20.0000014E-3,,,,,739.008009434E-3,12.0000001E-3,
,,,739.040017128E-3,12.0000001E-3,,,,,739.040017128E-3,20.0000014E-3,
,,,739.072024822E-3,12.0000001E-3,,,,,739.072024822E-3,12.0000001E-3,
,,,739.104032516E-3,12.0000001E-3,,,,,739.104032516E-3,12.0000001E-3,
,,,739.136040211E-3,1.0040001,,,,,739.136040211E-3,20.0000014E-3,
,,,739.168047905E-3,996.000051498E-3,,,,,739.168047905E-3,20.0000014E-3,
,,,739.200055599E-3,988.000035286E-3,,,,,739.200055599E-3,4.00000019E-3,
,,,739.232063293E-3,980.000019073E-3,,,,,739.232063293E-3,12.0000001E-3,
,,,739.264011383E-3,972.000062466E-3,,,,,739.264011383E-3,12.0000001E-3,
,,,739.296019077E-3,964.000046253E-3,,,,,739.296019077E-3,12.0000001E-3,
,,,739.328026772E-3,964.000046253E-3,,,,,739.328026772E-3,20.0000014E-3,
,,,739.360034466E-3,964.000046253E-3,,,,,739.360034466E-3,12.0000001E-3,
,,,739.392042160E-3,972.000062466E-3,,,,,739.392042160E-3,28.00000086E-3,
,,,739.424049854E-3,964.000046253E-3,,,,,739.424049854E-3,44.00000349E-3,
,,,739.456057549E-3,972.000062466E-3,,,,,739.456057549E-3,60.000002384E-3,
,,,739.488065243E-3,964.000046253E-3,,,,,739.488065243E-3,44.00000349E-3,
,,,739.520013332E-3,972.000062466E-3,,,,,739.520013332E-3,84.000006318E-3,
,,,739.552021027E-3,964.000046253E-3,,,,,739.552021027E-3,92.000007629E-3,
,,,739.584028721E-3,972.000062466E-3,,,,,739.584028721E-3,108.0000028E-3,
,,,739.616036415E-3,964.000046253E-3,,,,,739.616036415E-3,131.9999993E-3,
,,,739.648044109E-3,972.000062466E-3,,,,,739.648044109E-3,140.0000006E-3,
,,,739.680051804E-3,972.000062466E-3,,,,,739.680051804E-3,148.0000019E-3,
,,,739.712059498E-3,972.000062466E-3,,,,,739.712059498E-3,188.00000846E-3,
,,,739.744007587E-3,972.000062466E-3,,,,,739.744007587E-3,196.00000978E-3,
,,,739.776015282E-3,972.000062466E-3,,,,,739.776015282E-3,212.00001240E-3,
,,,739.808022976E-3,972.000062466E-3,,,,,739.808022976E-3,236.00001633E-3,
,,,739.840030670E-3,972.000062466E-3,,,,,739.840030670E-3,252.00000405E-3,
,,,739.872038364E-3,972.000062466E-3,,,,,739.872038364E-3,276.00002289E-3,
,,,739.904046059E-3,972.000062466E-3,,,,,739.904046059E-3,292.00002551E-3,
,,,739.936053753E-3,972.000062466E-3,,,,,739.936053753E-3,324.00000095E-3,
,,,739.968061447E-3,972.000062466E-3,,,,,739.968061447E-3,332.00001717E-3,
,,,740.000009537E-3,972.000062466E-3,,,,,740.000009537E-3,356.00000620E-3,
,,,740.032017231E-3,972.000062466E-3,,,,,740.032017231E-3,388.00001144E-3,
,,,740.064024925E-3,972.000062466E-3,,,,,740.064024925E-3,404.000014067E-3,
,,,740.096032619E-3,980.000019073E-3,,,,,740.096032619E-3,436.000019312E-3,
,,,740.128040314E-3,980.000019073E-3,,,,,740.128040314E-3,460.000008345E-3,
,,,740.160048008E-3,972.000062466E-3,,,,,740.160048008E-3,468.000024557E-3,
,,,740.192055702E-3,980.000019073E-3,,,,,740.192055702E-3,508.000016212E-3,
,,,740.224063396E-3,980.000019073E-3,,,,,740.224063396E-3,516.000032425E-3,
,,,740.256011486E-3,980.000019073E-3,,,,,740.256011486E-3,548.000037670E-3,
,,,740.288019180E-3,980.000019073E-3,,,,,740.288019180E-3,564.000010490E-3,
,,,740.320026875E-3,980.000019073E-3,,,,,740.320026875E-3,580.000042915E-3,
,,,740.352034569E-3,980.000019073E-3,,,,,740.352034569E-3,572.000026703E-3,
,,,740.384042263E-3,980.000019073E-3,,,,,740.384042263E-3,604.000031948E-3,
,,,740.416049957E-3,980.000019073E-3,,,,,740.416049957E-3,628.000020981E-3,
,,,740.448057652E-3,980.000019073E-3,,,,,740.448057652E-3,636.000037193E-3,
,,,740.480065346E-3,988.000035286E-3,,,,,740.480065346E-3,660.000026226E-3,
,,,740.512013435E-3,980.000019073E-3,,,,,740.512013435E-3,668.000042439E-3,
,,,740.544021130E-3,988.000035286E-3,,,,,740.544021130E-3,684.000015259E-3,
,,,740.576028824E-3,988.000035286E-3,,,,,740.576028824E-3,692.000031471E-3,
,,,740.608036518E-3,980.000019073E-3,,,,,740.608036518E-3,716.000020504E-3,
,,,740.640044212E-3,988.000035286E-3,,,,,740.640044212E-3,740.000009537E-3,
,,,740.672051907E-3,988.000035286E-3,,,,,740.672051907E-3,732.000052929E-3,
,,,740.704059601E-3,988.000035286E-3,,,,,740.704059601E-3,740.000009537E-3,
,,,740.736007690E-3,988.000035286E-3,,,,,740.736007690E-3,748.000025749E-3,
,,,740.768015385E-3,996.000051498E-3,,,,,740.768015385E-3,764.000058174E-3,
,,,740.800023079E-3,988.000035286E-3,,,,,740.800023079E-3,772.000014782E-3,
,,,740.832030773E-3,996.000051498E-3,,,,,740.832030773E-3,788.000047207E-3,
,,,740.864038467E-3,988.000035286E-3,,,,,740.864038467E-3,788.000047207E-3,
,,,740.896046162E-3,988.000035286E-3,,,,,740.896046162E-3,796.000063419E-3,
,,,740.928053856E-3,988.000035286E-3,,,,,740.928053856E-3,796.000063419E-3,
,,,740.960061550E-3,996.000051498E-3,,,,,740.960061550E-3,796.000063419E-3,
,,,740.992009640E-3,988.000035286E-3,,,,,740.992009640E-3,804.000020027E-3,
,,,741.024017334E-3,996.000051498E-3,,,,,741.024017334E-3,804.000020027E-3,
,,,741.056025028E-3,988.000035286E-3,,,,,741.056025028E-3,812.000036240E-3,
,,,741.088032722E-3,988.000035286E-3,,,,,741.088032722E-3,804.000020027E-3,
,,,741.120040417E-3,996.000051498E-3,,,,,741.120040417E-3,812.000036240E-3,
,,,741.152048111E-3,996.000051498E-3,,,,,741.152048111E-3,820.000052452E-3,
,,,741.184055805E-3,988.000035286E-3,,,,,741.184055805E-3,828.000068665E-3,
,,,741.216063499E-3,988.000035286E-3,,,,,741.216063499E-3,828.000068665E-3,
,,,741.248011589E-3,996.000051498E-3,,,,,741.248011589E-3,836.000025272E-3,
,,,741.280019283E-3,996.000051498E-3,,,,,741.280019283E-3,844.000041485E-3,
,,,741.312026978E-3,996.000051498E-3,,,,,741.312026978E-3,836.000025272E-3,
,,,741.344034672E-3,996.000051498E-3,,,,,741.344034672E-3,844.000041485E-3,
,,,741.376042366E-3,996.000051498E-3,,,,,741.376042366E-3,844.000041485E-3,
,,,741.408050060E-3,996.000051498E-3,,,,,741.408050060E-3,844.000041485E-3,
,,,741.440057755E-3,996.000051498E-3,,,,,741.440057755E-3,844.000041485E-3,
,,,741.472065449E-3,988.000035286E-3,,,,,741.472065449E-3,860.000014305E-3,
,,,741.504013538E-3,996.000051498E-3,,,,,741.504013538E-3,852.000057697E-3,
,,,741.536021233E-3,988.000035286E-3,,,,,741.536021233E-3,860.000014305E-3,
,,,741.568028927E-3,996.000051498E-3,,,,,741.568028927E-3,860.000014305E-3,
,,,741.600036621E-3,996.000051498E-3,,,,,741.600036621E-3,860.000014305E-3,
,,,741.632044315E-3,996.000051498E-3,,,,,741.632044315E-3,860.000014305E-3,
,,,741.664052010E-3,988.000035286E-3,,,,,741.664052010E-3,860.000014305E-3,
,,,741.696059704E-3,996.000051498E-3,,,,,741.696059704E-3,892.000019550E-3,
,,,741.728007793E-3,996.000051498E-3,,,,,741.728007793E-3,868.000030518E-3,
,,,741.760015488E-3,988.000035286E-3,,,,,741.760015488E-3,868.000030518E-3,
,,,741.792023182E-3,988.000035286E-3,,,,,741.792023182E-3,868.000030518E-3,
,,,741.824030876E-3,996.000051498E-3,,,,,741.824030876E-3,876.000046730E-3,
,,,741.856038570E-3,996.000051498E-3,,,,,741.856038570E-3,884.000062943E-3,
,,,741.888046265E-3,996.000051498E-3,,,,,741.888046265E-3,884.000062943E-3,
,,,741.920053959E-3,996.000051498E-3,,,,,741.920053959E-3,884.000062943E-3,
,,,741.952061653E-3,996.000051498E-3,,,,,741.952061653E-3,892.000019550E-3,
,,,741.984009743E-3,996.000051498E-3,,,,,741.984009743E-3,892.000019550E-3,
,,,742.016017437E-3,996.000051498E-3,,,,,742.016017437E-3,900.000035763E-3,
,,,742.048025131E-3,996.000051498E-3,,,,,742.048025131E-3,892.000019550E-3,
,,,742.080032825E-3,996.000051498E-3,,,,,742.080032825E-3,900.000035763E-3,
,,,742.112040520E-3,996.000051498E-3,,,,,742.112040520E-3,900.000035763E-3,
,,,742.144048214E-3,996.000051498E-3,,,,,742.144048214E-3,892.000019550E-3,
,,,742.176055908E-3,996.000051498E-3,,,,,742.176055908E-3,900.000035763E-3,
,,,742.208063602E-3,996.000051498E-3,,,,,742.208063602E-3,900.000035763E-3,
,,,742.240011692E-3,996.000051498E-3,,,,,742.240011692E-3,900.000035763E-3,
,,,742.272019386E-3,996.000051498E-3,,,,,742.272019386E-3,908.000051975E-3,
,,,742.304027081E-3,988.000035286E-3,,,,,742.304027081E-3,916.000068188E-3,
,,,742.336034775E-3,996.000051498E-3,,,,,742.336034775E-3,916.000068188E-3,
,,,742.368042469E-3,988.000035286E-3,,,,,742.368042469E-3,916.000068188E-3,
,,,742.400050163E-3,996.000051498E-3,,,,,742.400050163E-3,924.000024796E-3,
,,,742.432057858E-3,988.000035286E-3,,,,,742.432057858E-3,924.000024796E-3,
,,,742.464065552E-3,996.000051498E-3,,,,,742.464065552E-3,924.000024796E-3,
,,,742.496013641E-3,980.000019073E-3,,,,,742.496013641E-3,884.000062943E-3,
,,,742.528021336E-3,996.000051498E-3,,,,,742.528021336E-3,932.000041008E-3,
,,,742.560029030E-3,996.000051498E-3,,,,,742.560029030E-3,932.000041008E-3,
,,,742.592036724E-3,996.000051498E-3,,,,,742.592036724E-3,940.000057220E-3,
,,,742.624044418E-3,996.000051498E-3,,,,,742.624044418E-3,940.000057220E-3,
,,,742.656052113E-3,996.000051498E-3,,,,,742.656052113E-3,932.000041008E-3,
,,,742.688059807E-3,1.0040001,,,,,742.688059807E-3,940.000057220E-3,
,,,742.720007896E-3,996.000051498E-3,,,,,742.720007896E-3,940.000057220E-3,
,,,742.752015591E-3,996.000051498E-3,,,,,742.752015591E-3,932.000041008E-3,
,,,742.784023285E-3,996.000051498E-3,,,,,742.784023285E-3,932.000041008E-3,
,,,742.816030979E-3,996.000051498E-3,,,,,742.816030979E-3,940.000057220E-3,
,,,742.848038673E-3,996.000051498E-3,,,,,742.848038673E-3,932.000041008E-3,
,,,742.880046368E-3,1.0040001,,,,,742.880046368E-3,948.000073433E-3,
,,,742.912054062E-3,996.000051498E-3,,,,,742.912054062E-3,948.000073433E-3,
,,,742.944061756E-3,996.000051498E-3,,,,,742.944061756E-3,948.000073433E-3,
,,,742.976009846E-3,996.000051498E-3,,,,,742.976009846E-3,948.000073433E-3,
,,,743.008017540E-3,996.000051498E-3,,,,,743.008017540E-3,948.000073433E-3,
,,,743.040025234E-3,996.000051498E-3,,,,,743.040025234E-3,956.000030041E-3,
,,,743.072032928E-3,996.000051498E-3,,,,,743.072032928E-3,964.000046253E-3,
,,,743.104040623E-3,996.000051498E-3,,,,,743.104040623E-3,964.000046253E-3,
,,,743.136048317E-3,1.0040001,,,,,743.136048317E-3,964.000046253E-3,
,,,743.168056011E-3,996.000051498E-3,,,,,743.168056011E-3,964.000046253E-3,
,,,743.200063705E-3,996.000051498E-3,,,,,743.200063705E-3,964.000046253E-3,
,,,743.232011795E-3,996.000051498E-3,,,,,743.232011795E-3,956.000030041E-3,
,,,743.264019489E-3,1.0040001,,,,,743.264019489E-3,972.000062466E-3,
,,,743.296027184E-3,996.000051498E-3,,,,,743.296027184E-3,948.000073433E-3,
,,,743.328034878E-3,996.000051498E-3,,,,,743.328034878E-3,948.000073433E-3,
,,,743.360042572E-3,996.000051498E-3,,,,,743.360042572E-3,956.000030041E-3,
,,,743.392050266E-3,996.000051498E-3,,,,,743.392050266E-3,980.000019073E-3,
,,,743.424057961E-3,996.000051498E-3,,,,,743.424057961E-3,956.000030041E-3,
,,,743.456065655E-3,996.000051498E-3,,,,,743.456065655E-3,964.000046253E-3,
,,,743.488013744E-3,1.0040001,,,,,743.488013744E-3,956.000030041E-3,
,,,743.520021439E-3,996.000051498E-3,,,,,743.520021439E-3,972.000062466E-3,
,,,743.552029133E-3,996.000051498E-3,,,,,743.552029133E-3,956.000030041E-3,
,,,743.584036827E-3,996.000051498E-3,,,,,743.584036827E-3,964.000046253E-3,
,,,743.616044521E-3,996.000051498E-3,,,,,743.616044521E-3,972.000062466E-3,
,,,743.648052216E-3,996.000051498E-3,,,,,743.648052216E-3,980.000019073E-3,
,,,743.680059910E-3,1.0040001,,,,,743.680059910E-3,972.000062466E-3,
,,,743.712007999E-3,1.0040001,,,,,743.712007999E-3,972.000062466E-3,
,,,743.744015694E-3,1.0040001,,,,,743.744015694E-3,980.000019073E-3,
,,,743.776023388E-3,996.000051498E-3,,,,,743.776023388E-3,980.000019073E-3,
,,,743.808031082E-3,1.0040001,,,,,743.808031082E-3,972.000062466E-3,
,,,743.840038776E-3,996.000051498E-3,,,,,743.840038776E-3,980.000019073E-3,
,,,743.872046471E-3,996.000051498E-3,,,,,743.872046471E-3,972.000062466E-3,
,,,743.904054165E-3,996.000051498E-3,,,,,743.904054165E-3,972.000062466E-3,
,,,743.936061859E-3,1.0040001,,,,,743.936061859E-3,972.000062466E-3,
,,,743.968009949E-3,1.0040001,,,,,743.968009949E-3,964.000046253E-3,
,,,744.000017643E-3,1.0040001,,,,,744.000017643E-3,964.000046253E-3,
,,,744.032025337E-3,1.0040001,,,,,744.032025337E-3,964.000046253E-3,
,,,744.064033031E-3,996.000051498E-3,,,,,744.064033031E-3,948.000073433E-3,
,,,744.096040726E-3,996.000051498E-3,,,,,744.096040726E-3,964.000046253E-3,
,,,744.128048420E-3,996.000051498E-3,,,,,744.128048420E-3,980.000019073E-3,
,,,744.160056114E-3,996.000051498E-3,,,,,744.160056114E-3,980.000019073E-3,
,,,744.192063808E-3,1.0040001,,,,,744.192063808E-3,980.000019073E-3,
,,,744.224011898E-3,996.000051498E-3,,,,,744.224011898E-3,980.000019073E-3,
,,,744.256019592E-3,1.0040001,,,,,744.256019592E-3,980.000019073E-3,
,,,744.288027287E-3,996.000051498E-3,,,,,744.288027287E-3,980.000019073E-3,
,,,744.320034981E-3,996.000051498E-3,,,,,744.320034981E-3,980.000019073E-3,
,,,744.352042675E-3,1.0040001,,,,,744.352042675E-3,980.000019073E-3,
,,,744.384050369E-3,1.0040001,,,,,744.384050369E-3,972.000062466E-3,
,,,744.416058064E-3,1.0040001,,,,,744.416058064E-3,980.000019073E-3,
,,,744.448065758E-3,996.000051498E-3,,,,,744.448065758E-3,972.000062466E-3,
,,,744.480013847E-3,996.000051498E-3,,,,,744.480013847E-3,972.000062466E-3,
,,,744.512021542E-3,996.000051498E-3,,,,,744.512021542E-3,980.000019073E-3,
,,,744.544029236E-3,996.000051498E-3,,,,,744.544029236E-3,980.000019073E-3,
,,,744.576036930E-3,996.000051498E-3,,,,,744.576036930E-3,972.000062466E-3,
,,,744.608044624E-3,996.000051498E-3,,,,,744.608044624E-3,972.000062466E-3,
,,,744.640052319E-3,996.000051498E-3,,,,,744.640052319E-3,972.000062466E-3,
,,,744.672060013E-3,996.000051498E-3,,,,,744.672060013E-3,980.000019073E-3,
,,,744.704008102E-3,1.0040001,,,,,744.704008102E-3,980.000019073E-3,
,,,744.736015797E-3,996.000051498E-3,,,,,744.736015797E-3,980.000019073E-3,
,,,744.768023491E-3,1.0040001,,,,,744.768023491E-3,980.000019073E-3,
,,,744.800031185E-3,1.0040001,,,,,744.800031185E-3,988.000035286E-3,
,,,744.832038879E-3,996.000051498E-3,,,,,744.832038879E-3,980.000019073E-3,
,,,744.864046574E-3,996.000051498E-3,,,,,744.864046574E-3,980.000019073E-3,
,,,744.896054268E-3,996.000051498E-3,,,,,744.896054268E-3,988.000035286E-3,
,,,744.928061962E-3,996.000051498E-3,,,,,744.928061962E-3,980.000019073E-3,
,,,744.960010052E-3,996.000051498E-3,,,,,744.960010052E-3,980.000019073E-3,
,,,744.992017746E-3,996.000051498E-3,,,,,744.992017746E-3,988.000035286E-3,
,,,745.024025440E-3,1.0040001,,,,,745.024025440E-3,980.000019073E-3,
,,,745.056033134E-3,1.0040001,,,,,745.056033134E-3,980.000019073E-3,
,,,745.088040829E-3,1.0040001,,,,,745.088040829E-3,988.000035286E-3,
